<?xml version="1.0" encoding="utf-8"?>
<!-- Generator: Adobe Illustrator 19.2.0, SVG Export Plug-In . SVG Version: 6.00 Build 0)  -->
<svg version="1.1" id="icon" xmlns="http://www.w3.org/2000/svg" xmlns:xlink="http://www.w3.org/1999/xlink" x="0px" y="0px"
	 viewBox="0 0 16 16" style="enable-background:new 0 0 16 16;" xml:space="preserve">
<style type="text/css">
	.st0{fill:#FFFFFF;}
</style>
<g>
	<path class="st0" d="M8,0.8c4,0,7.2,3.3,7.2,7.2S12,15.2,8,15.2S0.8,12,0.8,8S4,0.8,8,0.8 M8,0C3.6,0,0,3.6,0,8s3.6,8,8,8
		s8-3.6,8-8S12.4,0,8,0L8,0z"/>
</g>
<g>
	<path class="st0" d="M8.7,16l-0.6-0.4c1.8-2.8,2.7-5.2,2.7-7.6c0-3-1.5-5.8-2.8-7.6L8.6,0c1.9,2.7,2.9,5.4,2.9,8S10.6,13.1,8.7,16z
		"/>
</g>
<g>
	<path class="st0" d="M7.3,16c-1.9-2.9-2.8-5.5-2.8-8c0-3.3,1.6-6.2,2.9-8.1L8,0.4C6.7,2.2,5.2,4.9,5.2,8c0,2.4,0.8,4.8,2.7,7.6
		L7.3,16z"/>
</g>
<g>
	<rect x="0.8" y="5.3" class="st0" width="14.3" height="0.7"/>
</g>
<g>
	<rect x="0.9" y="10" class="st0" width="14.3" height="0.7"/>
</g>
</svg>
