<?xml version="1.0" encoding="utf-8"?>
<!-- Generator: Adobe Illustrator 19.2.0, SVG Export Plug-In . SVG Version: 6.00 Build 0)  -->
<svg version="1.1" id="Layer_1" xmlns="http://www.w3.org/2000/svg" xmlns:xlink="http://www.w3.org/1999/xlink" x="0px" y="0px"
	 viewBox="0 0 16 16" style="enable-background:new 0 0 16 16;" xml:space="preserve">
<style type="text/css">
	.st0{display:none;}
	.st1{display:inline;}
	.st2{fill:#FFFFFF;}
	.st3{display:inline;fill:#FFFFFF;}
</style>
<g id="Layer_1_4_" class="st0">
	<g id="Layer_1_2_" class="st1">
		<g id="Layer_1_1_">
			<g>
				<g>
					<path d="M8,15c-3.9,0-7-3.1-7-7s3.1-7,7-7s7,3.1,7,7C15,11.8,11.9,15,8,15z M8,2C4.7,2,2,4.7,2,8s2.7,6,6,6s6-2.7,6-6
						S11.3,2,8,2z"/>
				</g>
			</g>
			<g>
				<g>
					<g>
						<path d="M7.4,4.8c0-0.1,0-0.2,0.1-0.3c0-0.1,0.1-0.2,0.1-0.2c0.1-0.1,0.1-0.1,0.2-0.2C7.8,4,7.9,4,8,4c0.1,0,0.2,0,0.3,0.1
							c0.1,0,0.1,0.1,0.2,0.2c0.1,0.1,0.1,0.1,0.1,0.2s0.1,0.2,0.1,0.3v2.1l2.6,1.5v1l-2.6-1V11l0.4,0.3V12L8,11.6L6.9,12v-0.7
							L7.4,11V8.4l-2.6,1v-1l2.6-1.5V4.8z"/>
					</g>
				</g>
			</g>
			<g>
				<g>
					<g>
						<rect y="7.5" width="2" height="1"/>
					</g>
				</g>
			</g>
			<g>
				<g>
					<g>
						<rect x="7.5" width="1" height="2"/>
					</g>
				</g>
			</g>
			<g>
				<g>
					<g>
						<rect x="7.5" y="14" width="1" height="2"/>
					</g>
				</g>
			</g>
			<g>
				<g>
					<g>
						<rect x="14" y="7.5" width="2" height="1"/>
					</g>
				</g>
			</g>
		</g>
		<g id="Layer_2">
			<g>
				<g>
					<rect y="7.5" width="1.2" height="1"/>
				</g>
			</g>
			<g>
				<g>
					<rect x="7.5" y="-0.1" width="1" height="1.2"/>
				</g>
			</g>
			<g>
				<g>
					<rect x="7.5" y="14.9" width="1" height="1.1"/>
				</g>
			</g>
			<g>
				<g>
					<rect x="14.9" y="7.5" width="1.1" height="1"/>
				</g>
			</g>
			<g>
				<g>
					<path d="M6,0.3C3.2,1,1,3.2,0.3,6h1C2,3.7,3.8,2,6,1.3V0.3z"/>
				</g>
				<g>
					<path d="M10,0.2v1.1C12.2,2,14,3.8,14.7,6h1C15,3.2,12.8,1,10,0.2z"/>
				</g>
			</g>
			<g>
				<g>
					<path d="M14.7,10c-0.7,2.3-2.5,4-4.7,4.7v1.1c2.8-0.7,5-2.9,5.7-5.7h-1V10z"/>
				</g>
				<g>
					<path d="M6,14.7C3.8,14,2,12.3,1.3,10h-1C1,12.8,3.2,15,6,15.7V14.7z"/>
				</g>
			</g>
			<g>
				<g>
					<path d="M7.4,4.8c0-0.1,0-0.2,0.1-0.3c0-0.1,0.1-0.2,0.1-0.2c0.1-0.1,0.1-0.1,0.2-0.2C7.8,4,7.9,4,8,4c0.1,0,0.2,0,0.3,0.1
						c0.1,0,0.1,0.1,0.2,0.2c0.1,0.1,0.1,0.1,0.1,0.2s0.1,0.2,0.1,0.3v2.1l2.6,1.5v1l-2.6-1V11l0.4,0.3V12L8,11.6L6.9,12v-0.7
						L7.4,11V8.4l-2.6,1v-1l2.6-1.5V4.8z"/>
				</g>
			</g>
		</g>
		<g id="Layer_2_copy">
			<g>
				<g>
					<path d="M1.2,6C1.9,4,3.5,2.4,5,1.5V0.7C2.6,1.6,1,4,0.4,6H1.2z"/>
				</g>
			</g>
			<g>
				<g>
					<path d="M14.8,6h0.8C15,4,13.4,1.7,11,0.7v0.8C12.5,2.4,14.1,4,14.8,6z"/>
				</g>
			</g>
			<g>
				<g>
					<path d="M8,14c-0.6,0-1-0.4-1-1V1c0-0.6,0.4-1,1-1s1,0.4,1,1v12C9,13.6,8.6,14,8,14z"/>
				</g>
			</g>
			<g>
				<g>
					<g>
						<polygon points="15,9.6 8,7.1 1,9.6 1,8 8,5.2 15,7.9 						"/>
					</g>
				</g>
			</g>
			<g>
				<g>
					<path d="M7,13l-1.8,1.3v1.5L8,15l2.8,0.8v-1.5L9,13"/>
				</g>
			</g>
			<g>
				<g>
					<path d="M4,13.9c-1.1-0.7-1.9-1.7-2.5-2.9H0.7c0.7,1.6,1.8,2.9,3.3,3.8V13.9z"/>
				</g>
			</g>
			<g>
				<g>
					<path d="M14.4,11c-0.5,1.2-1.4,2.1-2.4,2.9v0.9c1.4-0.9,2.6-2.2,3.3-3.7L14.4,11L14.4,11z"/>
				</g>
			</g>
		</g>
	</g>
	<g id="Layer_1_3_" class="st1">
		<g>
			<g>
				<path d="M8,15c-3.9,0-7-3.1-7-7s3.1-7,7-7s7,3.1,7,7C15,11.8,11.9,15,8,15z M8,2C4.7,2,2,4.7,2,8s2.7,6,6,6s6-2.7,6-6
					S11.3,2,8,2z"/>
			</g>
		</g>
		<g>
			<g>
				<g>
					<path d="M7.4,4.8c0-0.1,0-0.2,0.1-0.3c0-0.1,0.1-0.2,0.1-0.2c0.1-0.1,0.1-0.1,0.2-0.2C7.8,4,7.9,4,8,4c0.1,0,0.2,0,0.3,0.1
						c0.1,0,0.1,0.1,0.2,0.2c0.1,0.1,0.1,0.1,0.1,0.2s0.1,0.2,0.1,0.3v2.1l2.6,1.5v1l-2.6-1V11l0.4,0.3V12L8,11.6L6.9,12v-0.7
						L7.4,11V8.4l-2.6,1v-1l2.6-1.5V4.8z"/>
				</g>
			</g>
		</g>
		<g>
			<g>
				<g>
					<rect y="7.5" width="2" height="1"/>
				</g>
			</g>
		</g>
		<g>
			<g>
				<g>
					<rect x="7.5" width="1" height="2"/>
				</g>
			</g>
		</g>
		<g>
			<g>
				<g>
					<rect x="7.5" y="14" width="1" height="2"/>
				</g>
			</g>
		</g>
		<g>
			<g>
				<g>
					<rect x="14" y="7.5" width="2" height="1"/>
				</g>
			</g>
		</g>
	</g>
	<g id="Layer_2_copy_1_" class="st1">
		<g>
			<g>
				<path d="M1.2,6C1.9,4,3.5,2.4,5,1.5V0.7C2.6,1.6,1,4,0.4,6H1.2z"/>
			</g>
		</g>
		<g>
			<g>
				<path d="M14.8,6h0.8C15,4,13.4,1.7,11,0.7v0.8C12.5,2.4,14.1,4,14.8,6z"/>
			</g>
		</g>
		<g>
			<g>
				<path d="M8,14c-0.6,0-1-0.4-1-1V1c0-0.6,0.4-1,1-1s1,0.4,1,1v12C9,13.6,8.6,14,8,14z"/>
			</g>
		</g>
		<g>
			<g>
				<g>
					<polygon points="15,9.6 8,7.1 1,9.6 1,8 8,5.2 15,7.9 					"/>
				</g>
			</g>
		</g>
		<g>
			<g>
				<path d="M7,13l-1.8,1.3v1.5L8,15l2.8,0.8v-1.5L9,13"/>
			</g>
		</g>
		<g>
			<g>
				<path d="M4,13.9c-1.1-0.7-1.9-1.7-2.5-2.9H0.7c0.7,1.6,1.8,2.9,3.3,3.8V13.9z"/>
			</g>
		</g>
		<g>
			<g>
				<path d="M14.4,11c-0.5,1.2-1.4,2.1-2.4,2.9v0.9c1.4-0.9,2.6-2.2,3.3-3.7L14.4,11L14.4,11z"/>
			</g>
		</g>
	</g>
	<g id="Layer_3" class="st1">
		<g>
			<g>
				<path d="M12.5,8c0,0.5-0.4,1-0.9,1H4.4C3.9,9,3.5,8.5,3.5,8s0.4-1,0.9-1h7.2C12.1,7,12.5,7.5,12.5,8z"/>
			</g>
		</g>
		<g>
			<g>
				<path d="M8,1.3c3.7,0,6.7,3,6.7,6.7s-3,6.7-6.7,6.7s-6.7-3-6.7-6.7S4.3,1.3,8,1.3 M8,0.5C3.9,0.5,0.5,3.9,0.5,8s3.4,7.5,7.5,7.5
					s7.5-3.4,7.5-7.5S12.1,0.5,8,0.5L8,0.5z"/>
			</g>
		</g>
		<g>
			<g>
				<g>
					<rect y="7.5" width="1.2" height="1"/>
				</g>
			</g>
		</g>
		<g>
			<g>
				<g>
					<rect x="7.5" y="-0.1" width="1" height="1.2"/>
				</g>
			</g>
		</g>
		<g>
			<g>
				<g>
					<rect x="7.5" y="14.9" width="1" height="1.1"/>
				</g>
			</g>
		</g>
		<g>
			<g>
				<g>
					<rect x="14.9" y="7.5" width="1.1" height="1"/>
				</g>
			</g>
		</g>
	</g>
	<g class="st1">
		<path d="M8.6,7.8L13,9.3v-1l-4.4-2c0-1.1,0-2,0-2.7C8.6,3.3,8.4,3,8,3C7.6,3,7.4,3.3,7.4,3.7c0,0.6,0,1.6,0,2.6l0,0L3,8.3v1
			l4.4-1.4c0,1.2,0,2.4,0,3.3l0,0l-1,0.9V13l1-0.4l0,0L8,12.3l0.6,0.2l0,0c0.5,0.2,1,0.4,1,0.4V12l-1-0.9l0,0
			C8.6,10.3,8.6,9,8.6,7.8L8.6,7.8z"/>
	</g>
	<g class="st1">
		<g>
			<path d="M14.9,6h0.9c-0.8-2.8-3-5-5.8-5.7v0.8C12.4,1.8,14.2,3.7,14.9,6z"/>
		</g>
		<g>
			<path d="M14.9,10c-0.7,2.3-2.5,4.2-4.9,4.9v0.8c2.8-0.7,5-2.9,5.8-5.7H14.9z"/>
		</g>
	</g>
	<g class="st1">
		<g>
			<path d="M1.1,10H0.3C1,12.8,3.2,15,6,15.7v-0.8C3.6,14.2,1.8,12.4,1.1,10z"/>
		</g>
		<g>
			<path d="M0.3,6h0.8C1.8,3.6,3.6,1.8,6,1.1V0.3C3.2,1,1,3.2,0.3,6z"/>
		</g>
	</g>
	<g class="st1">
		<g>
			<rect y="7.5" width="1.2" height="1"/>
		</g>
	</g>
	<g class="st1">
		<g>
			<rect x="7.5" y="-0.1" width="1" height="1.2"/>
		</g>
	</g>
	<g class="st1">
		<g>
			<rect x="7.5" y="14.9" width="1" height="1.1"/>
		</g>
	</g>
	<g class="st1">
		<g>
			<rect x="14.9" y="7.5" width="1.1" height="1"/>
		</g>
	</g>
</g>
<g id="Layer_1_6_" class="st0">
	<g id="Layer_1_7_" class="st1">
		<g>
			<g>
				<path d="M8,15c-3.9,0-7-3.1-7-7s3.1-7,7-7s7,3.1,7,7C15,11.8,11.9,15,8,15z M8,2C4.7,2,2,4.7,2,8s2.7,6,6,6s6-2.7,6-6
					S11.3,2,8,2z"/>
			</g>
		</g>
		<g>
			<g>
				<g>
					<path d="M7.4,4.8c0-0.1,0-0.2,0.1-0.3c0-0.1,0.1-0.2,0.1-0.2c0.1-0.1,0.1-0.1,0.2-0.2C7.8,4,7.9,4,8,4c0.1,0,0.2,0,0.3,0.1
						c0.1,0,0.1,0.1,0.2,0.2c0.1,0.1,0.1,0.1,0.1,0.2s0.1,0.2,0.1,0.3v2.1l2.6,1.5v1l-2.6-1V11l0.4,0.3V12L8,11.6L6.9,12v-0.7
						L7.4,11V8.4l-2.6,1v-1l2.6-1.5V4.8z"/>
				</g>
			</g>
		</g>
		<g>
			<g>
				<g>
					<rect y="7.5" width="2" height="1"/>
				</g>
			</g>
		</g>
		<g>
			<g>
				<g>
					<rect x="7.5" width="1" height="2"/>
				</g>
			</g>
		</g>
		<g>
			<g>
				<g>
					<rect x="7.5" y="14" width="1" height="2"/>
				</g>
			</g>
		</g>
		<g>
			<g>
				<g>
					<rect x="14" y="7.5" width="2" height="1"/>
				</g>
			</g>
		</g>
	</g>
	<g id="Layer_2_1_" class="st1">
		<g>
			<g>
				<rect y="7.5" width="1.2" height="1"/>
			</g>
		</g>
		<g>
			<g>
				<rect x="7.5" y="-0.1" width="1" height="1.2"/>
			</g>
		</g>
		<g>
			<g>
				<rect x="7.5" y="14.9" width="1" height="1.1"/>
			</g>
		</g>
		<g>
			<g>
				<rect x="14.9" y="7.5" width="1.1" height="1"/>
			</g>
		</g>
		<g>
			<g>
				<path d="M6,0.3C3.2,1,1,3.2,0.3,6h1C2,3.7,3.8,2,6,1.3V0.3z"/>
			</g>
			<g>
				<path d="M10,0.2v1.1C12.2,2,14,3.8,14.7,6h1C15,3.2,12.8,1,10,0.2z"/>
			</g>
		</g>
		<g>
			<g>
				<path d="M14.7,10c-0.7,2.3-2.5,4-4.7,4.7v1.1c2.8-0.7,5-2.9,5.7-5.7h-1V10z"/>
			</g>
			<g>
				<path d="M6,14.7C3.8,14,2,12.3,1.3,10h-1C1,12.8,3.2,15,6,15.7V14.7z"/>
			</g>
		</g>
		<g>
			<g>
				<path d="M7.4,4.8c0-0.1,0-0.2,0.1-0.3c0-0.1,0.1-0.2,0.1-0.2c0.1-0.1,0.1-0.1,0.2-0.2C7.8,4,7.9,4,8,4c0.1,0,0.2,0,0.3,0.1
					c0.1,0,0.1,0.1,0.2,0.2c0.1,0.1,0.1,0.1,0.1,0.2s0.1,0.2,0.1,0.3v2.1l2.6,1.5v1l-2.6-1V11l0.4,0.3V12L8,11.6L6.9,12v-0.7L7.4,11
					V8.4l-2.6,1v-1l2.6-1.5V4.8z"/>
			</g>
		</g>
	</g>
	<g id="Layer_2_copy_3_" class="st1">
		<g>
			<g>
				<path d="M1.2,6C1.9,4,3.5,2.4,5,1.5V0.7C2.6,1.6,1,4,0.4,6H1.2z"/>
			</g>
		</g>
		<g>
			<g>
				<path d="M14.8,6h0.8C15,4,13.4,1.7,11,0.7v0.8C12.5,2.4,14.1,4,14.8,6z"/>
			</g>
		</g>
		<g>
			<g>
				<path d="M8,14c-0.6,0-1-0.4-1-1V1c0-0.6,0.4-1,1-1s1,0.4,1,1v12C9,13.6,8.6,14,8,14z"/>
			</g>
		</g>
		<g>
			<g>
				<g>
					<polygon points="15,9.6 8,7.1 1,9.6 1,8 8,5.2 15,7.9 					"/>
				</g>
			</g>
		</g>
		<g>
			<g>
				<path d="M7,13l-1.8,1.3v1.5L8,15l2.8,0.8v-1.5L9,13"/>
			</g>
		</g>
		<g>
			<g>
				<path d="M4,13.9c-1.1-0.7-1.9-1.7-2.5-2.9H0.7c0.7,1.6,1.8,2.9,3.3,3.8V13.9z"/>
			</g>
		</g>
		<g>
			<g>
				<path d="M14.4,11c-0.5,1.2-1.4,2.1-2.4,2.9v0.9c1.4-0.9,2.6-2.2,3.3-3.7L14.4,11L14.4,11z"/>
			</g>
		</g>
	</g>
</g>
<g id="Layer_1_5_" class="st0">
	<g class="st1">
		<g>
			<path d="M8,15c-3.9,0-7-3.1-7-7s3.1-7,7-7s7,3.1,7,7C15,11.8,11.9,15,8,15z M8,2C4.7,2,2,4.7,2,8s2.7,6,6,6s6-2.7,6-6S11.3,2,8,2
				z"/>
		</g>
	</g>
	<g class="st1">
		<g>
			<g>
				<path d="M7.4,4.8c0-0.1,0-0.2,0.1-0.3c0-0.1,0.1-0.2,0.1-0.2c0.1-0.1,0.1-0.1,0.2-0.2C7.8,4,7.9,4,8,4c0.1,0,0.2,0,0.3,0.1
					c0.1,0,0.1,0.1,0.2,0.2c0.1,0.1,0.1,0.1,0.1,0.2s0.1,0.2,0.1,0.3v2.1l2.6,1.5v1l-2.6-1V11l0.4,0.3V12L8,11.6L6.9,12v-0.7L7.4,11
					V8.4l-2.6,1v-1l2.6-1.5V4.8z"/>
			</g>
		</g>
	</g>
	<g class="st1">
		<g>
			<g>
				<rect y="7.5" width="2" height="1"/>
			</g>
		</g>
	</g>
	<g class="st1">
		<g>
			<g>
				<rect x="7.5" width="1" height="2"/>
			</g>
		</g>
	</g>
	<g class="st1">
		<g>
			<g>
				<rect x="7.5" y="14" width="1" height="2"/>
			</g>
		</g>
	</g>
	<g class="st1">
		<g>
			<g>
				<rect x="14" y="7.5" width="2" height="1"/>
			</g>
		</g>
	</g>
</g>
<g id="Layer_2_copy_2_" class="st0">
	<g class="st1">
		<g>
			<path d="M1.2,6C1.9,4,3.5,2.4,5,1.5V0.7C2.6,1.6,1,4,0.4,6H1.2z"/>
		</g>
	</g>
	<g class="st1">
		<g>
			<path d="M14.8,6h0.8C15,4,13.4,1.7,11,0.7v0.8C12.5,2.4,14.1,4,14.8,6z"/>
		</g>
	</g>
	<g class="st1">
		<g>
			<path d="M8,14c-0.6,0-1-0.4-1-1V1c0-0.6,0.4-1,1-1s1,0.4,1,1v12C9,13.6,8.6,14,8,14z"/>
		</g>
	</g>
	<g class="st1">
		<g>
			<g>
				<polygon points="15,9.6 8,7.1 1,9.6 1,8 8,5.2 15,7.9 				"/>
			</g>
		</g>
	</g>
	<g class="st1">
		<g>
			<path d="M7,13l-1.8,1.3v1.5L8,15l2.8,0.8v-1.5L9,13"/>
		</g>
	</g>
	<g class="st1">
		<g>
			<path d="M4,13.9c-1.1-0.7-1.9-1.7-2.5-2.9H0.7c0.7,1.6,1.8,2.9,3.3,3.8V13.9z"/>
		</g>
	</g>
	<g class="st1">
		<g>
			<path d="M14.4,11c-0.5,1.2-1.4,2.1-2.4,2.9v0.9c1.4-0.9,2.6-2.2,3.3-3.7L14.4,11L14.4,11z"/>
		</g>
	</g>
</g>
<g id="Layer_3_1_" class="st0">
	<g class="st1">
		<g>
			<path d="M12.5,8c0,0.5-0.4,1-0.9,1H4.4C3.9,9,3.5,8.5,3.5,8s0.4-1,0.9-1h7.2C12.1,7,12.5,7.5,12.5,8z"/>
		</g>
	</g>
	<g class="st1">
		<g>
			<path d="M8,1.3c3.7,0,6.7,3,6.7,6.7s-3,6.7-6.7,6.7s-6.7-3-6.7-6.7S4.3,1.3,8,1.3 M8,0.5C3.9,0.5,0.5,3.9,0.5,8s3.4,7.5,7.5,7.5
				s7.5-3.4,7.5-7.5S12.1,0.5,8,0.5L8,0.5z"/>
		</g>
	</g>
	<g class="st1">
		<g>
			<g>
				<rect y="7.5" width="1.2" height="1"/>
			</g>
		</g>
	</g>
	<g class="st1">
		<g>
			<g>
				<rect x="7.5" y="-0.1" width="1" height="1.2"/>
			</g>
		</g>
	</g>
	<g class="st1">
		<g>
			<g>
				<rect x="7.5" y="14.9" width="1" height="1.1"/>
			</g>
		</g>
	</g>
	<g class="st1">
		<g>
			<g>
				<rect x="14.9" y="7.5" width="1.1" height="1"/>
			</g>
		</g>
	</g>
</g>
<g>
	<g>
		<g>
			<path class="st2" d="M8,1.8c3.4,0,6.2,2.8,6.2,6.2s-2.8,6.2-6.2,6.2S1.8,11.4,1.8,8S4.6,1.8,8,1.8 M8,1C4.1,1,1,4.1,1,8
				s3.1,7,7,7s7-3.1,7-7S11.9,1,8,1L8,1z"/>
		</g>
	</g>
</g>
<g>
	<g>
		<g>
			<rect y="7.5" class="st2" width="1.2" height="1"/>
		</g>
	</g>
</g>
<g>
	<g>
		<g>
			<rect x="7.5" y="-0.1" class="st2" width="1" height="1.2"/>
		</g>
	</g>
</g>
<g>
	<g>
		<g>
			<rect x="7.5" y="14.9" class="st2" width="1" height="1.1"/>
		</g>
	</g>
</g>
<g>
	<g>
		<g>
			<rect x="14.9" y="7.5" class="st2" width="1.1" height="1"/>
		</g>
	</g>
</g>
<g id="Layer_1_copy" class="st0">
	<g id="Layer_1_12_" class="st1">
		<g id="Layer_1_14_">
			<g id="Layer_1_15_">
				<g>
					<g>
						<path d="M8,15c-3.9,0-7-3.1-7-7s3.1-7,7-7s7,3.1,7,7C15,11.8,11.9,15,8,15z M8,2C4.7,2,2,4.7,2,8s2.7,6,6,6s6-2.7,6-6
							S11.3,2,8,2z"/>
					</g>
				</g>
				<g>
					<g>
						<g>
							<path d="M7.4,4.8c0-0.1,0-0.2,0.1-0.3c0-0.1,0.1-0.2,0.1-0.2c0.1-0.1,0.1-0.1,0.2-0.2C7.8,4,7.9,4,8,4c0.1,0,0.2,0,0.3,0.1
								c0.1,0,0.1,0.1,0.2,0.2c0.1,0.1,0.1,0.1,0.1,0.2s0.1,0.2,0.1,0.3v2.1l2.6,1.5v1l-2.6-1V11l0.4,0.3V12L8,11.6L6.9,12v-0.7
								L7.4,11V8.4l-2.6,1v-1l2.6-1.5V4.8z"/>
						</g>
					</g>
				</g>
				<g>
					<g>
						<g>
							<rect y="7.5" width="2" height="1"/>
						</g>
					</g>
				</g>
				<g>
					<g>
						<g>
							<rect x="7.5" width="1" height="2"/>
						</g>
					</g>
				</g>
				<g>
					<g>
						<g>
							<rect x="7.5" y="14" width="1" height="2"/>
						</g>
					</g>
				</g>
				<g>
					<g>
						<g>
							<rect x="14" y="7.5" width="2" height="1"/>
						</g>
					</g>
				</g>
			</g>
			<g id="Layer_2_3_">
				<g>
					<g>
						<rect y="7.5" width="1.2" height="1"/>
					</g>
				</g>
				<g>
					<g>
						<rect x="7.5" y="-0.1" width="1" height="1.2"/>
					</g>
				</g>
				<g>
					<g>
						<rect x="7.5" y="14.9" width="1" height="1.1"/>
					</g>
				</g>
				<g>
					<g>
						<rect x="14.9" y="7.5" width="1.1" height="1"/>
					</g>
				</g>
				<g>
					<g>
						<path d="M6,0.3C3.2,1,1,3.2,0.3,6h1C2,3.7,3.8,2,6,1.3V0.3z"/>
					</g>
					<g>
						<path d="M10,0.2v1.1C12.2,2,14,3.8,14.7,6h1C15,3.2,12.8,1,10,0.2z"/>
					</g>
				</g>
				<g>
					<g>
						<path d="M14.7,10c-0.7,2.3-2.5,4-4.7,4.7v1.1c2.8-0.7,5-2.9,5.7-5.7h-1V10z"/>
					</g>
					<g>
						<path d="M6,14.7C3.8,14,2,12.3,1.3,10h-1C1,12.8,3.2,15,6,15.7V14.7z"/>
					</g>
				</g>
				<g>
					<g>
						<path d="M7.4,4.8c0-0.1,0-0.2,0.1-0.3c0-0.1,0.1-0.2,0.1-0.2c0.1-0.1,0.1-0.1,0.2-0.2C7.8,4,7.9,4,8,4c0.1,0,0.2,0,0.3,0.1
							c0.1,0,0.1,0.1,0.2,0.2c0.1,0.1,0.1,0.1,0.1,0.2s0.1,0.2,0.1,0.3v2.1l2.6,1.5v1l-2.6-1V11l0.4,0.3V12L8,11.6L6.9,12v-0.7
							L7.4,11V8.4l-2.6,1v-1l2.6-1.5V4.8z"/>
					</g>
				</g>
			</g>
			<g id="Layer_2_copy_7_">
				<g>
					<g>
						<path d="M1.2,6C1.9,4,3.5,2.4,5,1.5V0.7C2.6,1.6,1,4,0.4,6H1.2z"/>
					</g>
				</g>
				<g>
					<g>
						<path d="M14.8,6h0.8C15,4,13.4,1.7,11,0.7v0.8C12.5,2.4,14.1,4,14.8,6z"/>
					</g>
				</g>
				<g>
					<g>
						<path d="M8,14c-0.6,0-1-0.4-1-1V1c0-0.6,0.4-1,1-1s1,0.4,1,1v12C9,13.6,8.6,14,8,14z"/>
					</g>
				</g>
				<g>
					<g>
						<g>
							<polygon points="15,9.6 8,7.1 1,9.6 1,8 8,5.2 15,7.9 							"/>
						</g>
					</g>
				</g>
				<g>
					<g>
						<path d="M7,13l-1.8,1.3v1.5L8,15l2.8,0.8v-1.5L9,13"/>
					</g>
				</g>
				<g>
					<g>
						<path d="M4,13.9c-1.1-0.7-1.9-1.7-2.5-2.9H0.7c0.7,1.6,1.8,2.9,3.3,3.8V13.9z"/>
					</g>
				</g>
				<g>
					<g>
						<path d="M14.4,11c-0.5,1.2-1.4,2.1-2.4,2.9v0.9c1.4-0.9,2.6-2.2,3.3-3.7L14.4,11L14.4,11z"/>
					</g>
				</g>
			</g>
		</g>
		<g id="Layer_1_13_">
			<g>
				<g>
					<path d="M8,15c-3.9,0-7-3.1-7-7s3.1-7,7-7s7,3.1,7,7C15,11.8,11.9,15,8,15z M8,2C4.7,2,2,4.7,2,8s2.7,6,6,6s6-2.7,6-6
						S11.3,2,8,2z"/>
				</g>
			</g>
			<g>
				<g>
					<g>
						<path d="M7.4,4.8c0-0.1,0-0.2,0.1-0.3c0-0.1,0.1-0.2,0.1-0.2c0.1-0.1,0.1-0.1,0.2-0.2C7.8,4,7.9,4,8,4c0.1,0,0.2,0,0.3,0.1
							c0.1,0,0.1,0.1,0.2,0.2c0.1,0.1,0.1,0.1,0.1,0.2s0.1,0.2,0.1,0.3v2.1l2.6,1.5v1l-2.6-1V11l0.4,0.3V12L8,11.6L6.9,12v-0.7
							L7.4,11V8.4l-2.6,1v-1l2.6-1.5V4.8z"/>
					</g>
				</g>
			</g>
			<g>
				<g>
					<g>
						<rect y="7.5" width="2" height="1"/>
					</g>
				</g>
			</g>
			<g>
				<g>
					<g>
						<rect x="7.5" width="1" height="2"/>
					</g>
				</g>
			</g>
			<g>
				<g>
					<g>
						<rect x="7.5" y="14" width="1" height="2"/>
					</g>
				</g>
			</g>
			<g>
				<g>
					<g>
						<rect x="14" y="7.5" width="2" height="1"/>
					</g>
				</g>
			</g>
		</g>
		<g id="Layer_2_copy_6_">
			<g>
				<g>
					<path d="M1.2,6C1.9,4,3.5,2.4,5,1.5V0.7C2.6,1.6,1,4,0.4,6H1.2z"/>
				</g>
			</g>
			<g>
				<g>
					<path d="M14.8,6h0.8C15,4,13.4,1.7,11,0.7v0.8C12.5,2.4,14.1,4,14.8,6z"/>
				</g>
			</g>
			<g>
				<g>
					<path d="M8,14c-0.6,0-1-0.4-1-1V1c0-0.6,0.4-1,1-1s1,0.4,1,1v12C9,13.6,8.6,14,8,14z"/>
				</g>
			</g>
			<g>
				<g>
					<g>
						<polygon points="15,9.6 8,7.1 1,9.6 1,8 8,5.2 15,7.9 						"/>
					</g>
				</g>
			</g>
			<g>
				<g>
					<path d="M7,13l-1.8,1.3v1.5L8,15l2.8,0.8v-1.5L9,13"/>
				</g>
			</g>
			<g>
				<g>
					<path d="M4,13.9c-1.1-0.7-1.9-1.7-2.5-2.9H0.7c0.7,1.6,1.8,2.9,3.3,3.8V13.9z"/>
				</g>
			</g>
			<g>
				<g>
					<path d="M14.4,11c-0.5,1.2-1.4,2.1-2.4,2.9v0.9c1.4-0.9,2.6-2.2,3.3-3.7L14.4,11L14.4,11z"/>
				</g>
			</g>
		</g>
		<g id="Layer_3_3_">
			<g>
				<g>
					<path d="M12.5,8c0,0.5-0.4,1-0.9,1H4.4C3.9,9,3.5,8.5,3.5,8s0.4-1,0.9-1h7.2C12.1,7,12.5,7.5,12.5,8z"/>
				</g>
			</g>
			<g>
				<g>
					<path d="M8,1.3c3.7,0,6.7,3,6.7,6.7s-3,6.7-6.7,6.7s-6.7-3-6.7-6.7S4.3,1.3,8,1.3 M8,0.5C3.9,0.5,0.5,3.9,0.5,8
						s3.4,7.5,7.5,7.5s7.5-3.4,7.5-7.5S12.1,0.5,8,0.5L8,0.5z"/>
				</g>
			</g>
			<g>
				<g>
					<g>
						<rect y="7.5" width="1.2" height="1"/>
					</g>
				</g>
			</g>
			<g>
				<g>
					<g>
						<rect x="7.5" y="-0.1" width="1" height="1.2"/>
					</g>
				</g>
			</g>
			<g>
				<g>
					<g>
						<rect x="7.5" y="14.9" width="1" height="1.1"/>
					</g>
				</g>
			</g>
			<g>
				<g>
					<g>
						<rect x="14.9" y="7.5" width="1.1" height="1"/>
					</g>
				</g>
			</g>
		</g>
		<g>
			<path d="M8.6,7.8L13,9.3v-1l-4.4-2c0-1.1,0-2,0-2.7C8.6,3.3,8.4,3,8,3C7.6,3,7.4,3.3,7.4,3.7c0,0.6,0,1.6,0,2.6l0,0L3,8.3v1
				l4.4-1.4c0,1.2,0,2.4,0,3.3l0,0l-1,0.9V13l1-0.4l0,0L8,12.3l0.6,0.2l0,0c0.5,0.2,1,0.4,1,0.4V12l-1-0.9l0,0
				C8.6,10.3,8.6,9,8.6,7.8L8.6,7.8z"/>
		</g>
		<g>
			<g>
				<path d="M14.9,6h0.9c-0.8-2.8-3-5-5.8-5.7v0.8C12.4,1.8,14.2,3.7,14.9,6z"/>
			</g>
			<g>
				<path d="M14.9,10c-0.7,2.3-2.5,4.2-4.9,4.9v0.8c2.8-0.7,5-2.9,5.8-5.7H14.9z"/>
			</g>
		</g>
		<g>
			<g>
				<path d="M1.1,10H0.3C1,12.8,3.2,15,6,15.7v-0.8C3.6,14.2,1.8,12.4,1.1,10z"/>
			</g>
			<g>
				<path d="M0.3,6h0.8C1.8,3.6,3.6,1.8,6,1.1V0.3C3.2,1,1,3.2,0.3,6z"/>
			</g>
		</g>
		<g>
			<g>
				<rect y="7.5" width="1.2" height="1"/>
			</g>
		</g>
		<g>
			<g>
				<rect x="7.5" y="-0.1" width="1" height="1.2"/>
			</g>
		</g>
		<g>
			<g>
				<rect x="7.5" y="14.9" width="1" height="1.1"/>
			</g>
		</g>
		<g>
			<g>
				<rect x="14.9" y="7.5" width="1.1" height="1"/>
			</g>
		</g>
	</g>
	<g id="Layer_1_10_" class="st1">
		<g id="Layer_1_11_">
			<g>
				<g>
					<path d="M8,15c-3.9,0-7-3.1-7-7s3.1-7,7-7s7,3.1,7,7C15,11.8,11.9,15,8,15z M8,2C4.7,2,2,4.7,2,8s2.7,6,6,6s6-2.7,6-6
						S11.3,2,8,2z"/>
				</g>
			</g>
			<g>
				<g>
					<g>
						<path d="M7.4,4.8c0-0.1,0-0.2,0.1-0.3c0-0.1,0.1-0.2,0.1-0.2c0.1-0.1,0.1-0.1,0.2-0.2C7.8,4,7.9,4,8,4c0.1,0,0.2,0,0.3,0.1
							c0.1,0,0.1,0.1,0.2,0.2c0.1,0.1,0.1,0.1,0.1,0.2s0.1,0.2,0.1,0.3v2.1l2.6,1.5v1l-2.6-1V11l0.4,0.3V12L8,11.6L6.9,12v-0.7
							L7.4,11V8.4l-2.6,1v-1l2.6-1.5V4.8z"/>
					</g>
				</g>
			</g>
			<g>
				<g>
					<g>
						<rect y="7.5" width="2" height="1"/>
					</g>
				</g>
			</g>
			<g>
				<g>
					<g>
						<rect x="7.5" width="1" height="2"/>
					</g>
				</g>
			</g>
			<g>
				<g>
					<g>
						<rect x="7.5" y="14" width="1" height="2"/>
					</g>
				</g>
			</g>
			<g>
				<g>
					<g>
						<rect x="14" y="7.5" width="2" height="1"/>
					</g>
				</g>
			</g>
		</g>
		<g id="Layer_2_2_">
			<g>
				<g>
					<rect y="7.5" width="1.2" height="1"/>
				</g>
			</g>
			<g>
				<g>
					<rect x="7.5" y="-0.1" width="1" height="1.2"/>
				</g>
			</g>
			<g>
				<g>
					<rect x="7.5" y="14.9" width="1" height="1.1"/>
				</g>
			</g>
			<g>
				<g>
					<rect x="14.9" y="7.5" width="1.1" height="1"/>
				</g>
			</g>
			<g>
				<g>
					<path d="M6,0.3C3.2,1,1,3.2,0.3,6h1C2,3.7,3.8,2,6,1.3V0.3z"/>
				</g>
				<g>
					<path d="M10,0.2v1.1C12.2,2,14,3.8,14.7,6h1C15,3.2,12.8,1,10,0.2z"/>
				</g>
			</g>
			<g>
				<g>
					<path d="M14.7,10c-0.7,2.3-2.5,4-4.7,4.7v1.1c2.8-0.7,5-2.9,5.7-5.7h-1V10z"/>
				</g>
				<g>
					<path d="M6,14.7C3.8,14,2,12.3,1.3,10h-1C1,12.8,3.2,15,6,15.7V14.7z"/>
				</g>
			</g>
			<g>
				<g>
					<path d="M7.4,4.8c0-0.1,0-0.2,0.1-0.3c0-0.1,0.1-0.2,0.1-0.2c0.1-0.1,0.1-0.1,0.2-0.2C7.8,4,7.9,4,8,4c0.1,0,0.2,0,0.3,0.1
						c0.1,0,0.1,0.1,0.2,0.2c0.1,0.1,0.1,0.1,0.1,0.2s0.1,0.2,0.1,0.3v2.1l2.6,1.5v1l-2.6-1V11l0.4,0.3V12L8,11.6L6.9,12v-0.7
						L7.4,11V8.4l-2.6,1v-1l2.6-1.5V4.8z"/>
				</g>
			</g>
		</g>
		<g id="Layer_2_copy_5_">
			<g>
				<g>
					<path d="M1.2,6C1.9,4,3.5,2.4,5,1.5V0.7C2.6,1.6,1,4,0.4,6H1.2z"/>
				</g>
			</g>
			<g>
				<g>
					<path d="M14.8,6h0.8C15,4,13.4,1.7,11,0.7v0.8C12.5,2.4,14.1,4,14.8,6z"/>
				</g>
			</g>
			<g>
				<g>
					<path d="M8,14c-0.6,0-1-0.4-1-1V1c0-0.6,0.4-1,1-1s1,0.4,1,1v12C9,13.6,8.6,14,8,14z"/>
				</g>
			</g>
			<g>
				<g>
					<g>
						<polygon points="15,9.6 8,7.1 1,9.6 1,8 8,5.2 15,7.9 						"/>
					</g>
				</g>
			</g>
			<g>
				<g>
					<path d="M7,13l-1.8,1.3v1.5L8,15l2.8,0.8v-1.5L9,13"/>
				</g>
			</g>
			<g>
				<g>
					<path d="M4,13.9c-1.1-0.7-1.9-1.7-2.5-2.9H0.7c0.7,1.6,1.8,2.9,3.3,3.8V13.9z"/>
				</g>
			</g>
			<g>
				<g>
					<path d="M14.4,11c-0.5,1.2-1.4,2.1-2.4,2.9v0.9c1.4-0.9,2.6-2.2,3.3-3.7L14.4,11L14.4,11z"/>
				</g>
			</g>
		</g>
	</g>
	<g id="Layer_1_9_" class="st1">
		<g>
			<g>
				<path d="M8,15c-3.9,0-7-3.1-7-7s3.1-7,7-7s7,3.1,7,7C15,11.8,11.9,15,8,15z M8,2C4.7,2,2,4.7,2,8s2.7,6,6,6s6-2.7,6-6
					S11.3,2,8,2z"/>
			</g>
		</g>
		<g>
			<g>
				<g>
					<path d="M7.4,4.8c0-0.1,0-0.2,0.1-0.3c0-0.1,0.1-0.2,0.1-0.2c0.1-0.1,0.1-0.1,0.2-0.2C7.8,4,7.9,4,8,4c0.1,0,0.2,0,0.3,0.1
						c0.1,0,0.1,0.1,0.2,0.2c0.1,0.1,0.1,0.1,0.1,0.2s0.1,0.2,0.1,0.3v2.1l2.6,1.5v1l-2.6-1V11l0.4,0.3V12L8,11.6L6.9,12v-0.7
						L7.4,11V8.4l-2.6,1v-1l2.6-1.5V4.8z"/>
				</g>
			</g>
		</g>
		<g>
			<g>
				<g>
					<rect y="7.5" width="2" height="1"/>
				</g>
			</g>
		</g>
		<g>
			<g>
				<g>
					<rect x="7.5" width="1" height="2"/>
				</g>
			</g>
		</g>
		<g>
			<g>
				<g>
					<rect x="7.5" y="14" width="1" height="2"/>
				</g>
			</g>
		</g>
		<g>
			<g>
				<g>
					<rect x="14" y="7.5" width="2" height="1"/>
				</g>
			</g>
		</g>
	</g>
	<g id="Layer_2_copy_4_" class="st1">
		<g>
			<g>
				<path d="M1.2,6C1.9,4,3.5,2.4,5,1.5V0.7C2.6,1.6,1,4,0.4,6H1.2z"/>
			</g>
		</g>
		<g>
			<g>
				<path d="M14.8,6h0.8C15,4,13.4,1.7,11,0.7v0.8C12.5,2.4,14.1,4,14.8,6z"/>
			</g>
		</g>
		<g>
			<g>
				<path d="M8,14c-0.6,0-1-0.4-1-1V1c0-0.6,0.4-1,1-1s1,0.4,1,1v12C9,13.6,8.6,14,8,14z"/>
			</g>
		</g>
		<g>
			<g>
				<g>
					<polygon points="15,9.6 8,7.1 1,9.6 1,8 8,5.2 15,7.9 					"/>
				</g>
			</g>
		</g>
		<g>
			<g>
				<path d="M7,13l-1.8,1.3v1.5L8,15l2.8,0.8v-1.5L9,13"/>
			</g>
		</g>
		<g>
			<g>
				<path d="M4,13.9c-1.1-0.7-1.9-1.7-2.5-2.9H0.7c0.7,1.6,1.8,2.9,3.3,3.8V13.9z"/>
			</g>
		</g>
		<g>
			<g>
				<path d="M14.4,11c-0.5,1.2-1.4,2.1-2.4,2.9v0.9c1.4-0.9,2.6-2.2,3.3-3.7L14.4,11L14.4,11z"/>
			</g>
		</g>
	</g>
	<g id="Layer_3_2_" class="st1">
		<g>
			<g>
				<path d="M12.5,8c0,0.5-0.4,1-0.9,1H4.4C3.9,9,3.5,8.5,3.5,8s0.4-1,0.9-1h7.2C12.1,7,12.5,7.5,12.5,8z"/>
			</g>
		</g>
		<g>
			<g>
				<path d="M8,1.3c3.7,0,6.7,3,6.7,6.7s-3,6.7-6.7,6.7s-6.7-3-6.7-6.7S4.3,1.3,8,1.3 M8,0.5C3.9,0.5,0.5,3.9,0.5,8s3.4,7.5,7.5,7.5
					s7.5-3.4,7.5-7.5S12.1,0.5,8,0.5L8,0.5z"/>
			</g>
		</g>
		<g>
			<g>
				<g>
					<rect y="7.5" width="1.2" height="1"/>
				</g>
			</g>
		</g>
		<g>
			<g>
				<g>
					<rect x="7.5" y="-0.1" width="1" height="1.2"/>
				</g>
			</g>
		</g>
		<g>
			<g>
				<g>
					<rect x="7.5" y="14.9" width="1" height="1.1"/>
				</g>
			</g>
		</g>
		<g>
			<g>
				<g>
					<rect x="14.9" y="7.5" width="1.1" height="1"/>
				</g>
			</g>
		</g>
	</g>
	<g class="st1">
		<path d="M15.5,13.9l-0.7,0.5H14l-0.3-3.5h0.5c0.7,0,1.2-0.5,1-1.2L15,9.2c-0.5-1.9-2.4-3.4-4.2-3.4h-0.3V3h4.2
			C14.8,3,15,2.8,15,2.6s-0.2-0.3-0.3-0.3H3.9c-0.2,0-0.3,0.2-0.3,0.3C3.6,2.8,3.7,3,3.9,3h5.9v2.9H0.7V4.3C0.7,4.2,0.5,4,0.3,4
			S0,4.2,0,4.3v2.5C0,7,0.2,7.2,0.3,7.2l5.6,1.2c0,0,0.2,0,0.2,0.2l2.2,2.2c0.2,0,0.3,0.2,0.5,0.2h0.8l-0.3,3.5H8.4H8.3H7.6L6.9,14
			c-0.2-0.2-0.3-0.2-0.5,0c0,0.2,0,0.3,0.2,0.5l0.7,0.7h0.2h0.7h6.1H15l0,0l0.7-0.7C16,14.3,16,14.2,16,14
			C15.8,13.7,15.7,13.7,15.5,13.9z M10,14.4l0.3-3.5H13l0.3,3.5H10z M14.2,9.9h-5V6.7H11c1.7,0.4,2.8,2.1,2.8,2.1L14.2,9.9z"/>
	</g>
</g>
<g id="Layer_2_4_" class="st0">
	<path class="st3" d="M12,4.9H5.5C5.4,4.9,5.3,5,5.3,5.1s0.1,0.2,0.2,0.2H9V7H3.4V6.1c0-0.1-0.1-0.2-0.2-0.2S3,6,3,6.1v1.5
		c0,0.1,0.1,0.2,0.2,0.2l3.6,0.7c0,0,0.1,0,0.1,0.1l1.3,1.3c0.1,0,0.2,0.1,0.3,0.1H9l-0.2,1.7H8.1c-0.1,0-0.2,0.1-0.2,0.2
		c0,0.1,0.1,0.2,0.2,0.2h4h0.1l0.4-0.4c0.1-0.1,0.1-0.2,0-0.3s-0.2-0.1-0.3,0l-0.4,0.3h-0.5V10h0.3c0.4,0,0.7-0.3,0.6-0.7L12.2,9
		c-0.3-1.1-1.4-2-2.5-2H9.4V5.3H12c0.1,0,0.2-0.1,0.2-0.2C12.2,5,12.1,4.9,12,4.9z M11,10l0.2,1.7H9.1L9.4,10H11z"/>
	<g id="Layer_1_24_" class="st1">
		<g id="Layer_1_20_" class="st0">
			<g id="Layer_1_22_" class="st1">
				<g id="Layer_1_23_">
					<g>
						<path class="st2" d="M8,15c-3.9,0-7-3.1-7-7s3.1-7,7-7s7,3.1,7,7C15,11.8,11.9,15,8,15z M8,2C4.7,2,2,4.7,2,8s2.7,6,6,6
							s6-2.7,6-6S11.3,2,8,2z"/>
					</g>
					<g>
						<g>
							<path class="st2" d="M7.4,4.8c0-0.1,0-0.2,0.1-0.3c0-0.1,0.1-0.2,0.1-0.2c0.1-0.1,0.1-0.1,0.2-0.2C7.8,4,7.9,4,8,4
								c0.1,0,0.2,0,0.3,0.1c0.1,0,0.1,0.1,0.2,0.2c0.1,0.1,0.1,0.1,0.1,0.2s0.1,0.2,0.1,0.3v2.1l2.6,1.5v1l-2.6-1V11l0.4,0.3V12
								L8,11.6L6.9,12v-0.7L7.4,11V8.4l-2.6,1v-1l2.6-1.5V4.8z"/>
						</g>
					</g>
					<g>
						<g>
							<rect y="7.5" class="st2" width="2" height="1"/>
						</g>
					</g>
					<g>
						<g>
							<rect x="7.5" class="st2" width="1" height="2"/>
						</g>
					</g>
					<g>
						<g>
							<rect x="7.5" y="14" class="st2" width="1" height="2"/>
						</g>
					</g>
					<g>
						<g>
							<rect x="14" y="7.5" class="st2" width="2" height="1"/>
						</g>
					</g>
				</g>
				<g id="Layer_2_6_">
					<g>
						<rect y="7.5" class="st2" width="1.2" height="1"/>
					</g>
					<g>
						<rect x="7.5" y="-0.1" class="st2" width="1" height="1.2"/>
					</g>
					<g>
						<rect x="7.5" y="14.9" class="st2" width="1" height="1.1"/>
					</g>
					<g>
						<rect x="14.9" y="7.5" class="st2" width="1.1" height="1"/>
					</g>
					<g>
						<path class="st2" d="M6,0.3C3.2,1,1,3.2,0.3,6h1C2,3.7,3.8,2,6,1.3V0.3z"/>
						<path class="st2" d="M10,0.2v1.1C12.2,2,14,3.8,14.7,6h1C15,3.2,12.8,1,10,0.2z"/>
					</g>
					<g>
						<path class="st2" d="M14.7,10c-0.7,2.3-2.5,4-4.7,4.7v1.1c2.8-0.7,5-2.9,5.7-5.7h-1V10z"/>
						<path class="st2" d="M6,14.7C3.8,14,2,12.3,1.3,10h-1C1,12.8,3.2,15,6,15.7V14.7z"/>
					</g>
					<g>
						<path class="st2" d="M7.4,4.8c0-0.1,0-0.2,0.1-0.3c0-0.1,0.1-0.2,0.1-0.2c0.1-0.1,0.1-0.1,0.2-0.2C7.8,4,7.9,4,8,4
							c0.1,0,0.2,0,0.3,0.1c0.1,0,0.1,0.1,0.2,0.2c0.1,0.1,0.1,0.1,0.1,0.2s0.1,0.2,0.1,0.3v2.1l2.6,1.5v1l-2.6-1V11l0.4,0.3V12
							L8,11.6L6.9,12v-0.7L7.4,11V8.4l-2.6,1v-1l2.6-1.5V4.8z"/>
					</g>
				</g>
				<g id="Layer_2_copy_11_">
					<g>
						<path class="st2" d="M1.2,6C1.9,4,3.5,2.4,5,1.5V0.7C2.6,1.6,1,4,0.4,6H1.2z"/>
					</g>
					<g>
						<path class="st2" d="M14.8,6h0.8C15,4,13.4,1.7,11,0.7v0.8C12.5,2.4,14.1,4,14.8,6z"/>
					</g>
					<g>
						<path class="st2" d="M8,14c-0.6,0-1-0.4-1-1V1c0-0.6,0.4-1,1-1s1,0.4,1,1v12C9,13.6,8.6,14,8,14z"/>
					</g>
					<g>
						<g>
							<polygon class="st2" points="15,9.6 8,7.1 1,9.6 1,8 8,5.2 15,7.9 							"/>
						</g>
					</g>
					<g>
						<path class="st2" d="M7,13l-1.8,1.3v1.5L8,15l2.8,0.8v-1.5L9,13"/>
					</g>
					<g>
						<path class="st2" d="M4,13.9c-1.1-0.7-1.9-1.7-2.5-2.9H0.7c0.7,1.6,1.8,2.9,3.3,3.8V13.9z"/>
					</g>
					<g>
						<path class="st2" d="M14.4,11c-0.5,1.2-1.4,2.1-2.4,2.9v0.9c1.4-0.9,2.6-2.2,3.3-3.7L14.4,11L14.4,11z"/>
					</g>
				</g>
			</g>
			<g id="Layer_1_21_" class="st1">
				<g>
					<path class="st2" d="M8,15c-3.9,0-7-3.1-7-7s3.1-7,7-7s7,3.1,7,7C15,11.8,11.9,15,8,15z M8,2C4.7,2,2,4.7,2,8s2.7,6,6,6
						s6-2.7,6-6S11.3,2,8,2z"/>
				</g>
				<g>
					<g>
						<path class="st2" d="M7.4,4.8c0-0.1,0-0.2,0.1-0.3c0-0.1,0.1-0.2,0.1-0.2c0.1-0.1,0.1-0.1,0.2-0.2C7.8,4,7.9,4,8,4
							c0.1,0,0.2,0,0.3,0.1c0.1,0,0.1,0.1,0.2,0.2c0.1,0.1,0.1,0.1,0.1,0.2s0.1,0.2,0.1,0.3v2.1l2.6,1.5v1l-2.6-1V11l0.4,0.3V12
							L8,11.6L6.9,12v-0.7L7.4,11V8.4l-2.6,1v-1l2.6-1.5V4.8z"/>
					</g>
				</g>
				<g>
					<g>
						<rect y="7.5" class="st2" width="2" height="1"/>
					</g>
				</g>
				<g>
					<g>
						<rect x="7.5" class="st2" width="1" height="2"/>
					</g>
				</g>
				<g>
					<g>
						<rect x="7.5" y="14" class="st2" width="1" height="2"/>
					</g>
				</g>
				<g>
					<g>
						<rect x="14" y="7.5" class="st2" width="2" height="1"/>
					</g>
				</g>
			</g>
			<g id="Layer_2_copy_10_" class="st1">
				<g>
					<path class="st2" d="M1.2,6C1.9,4,3.5,2.4,5,1.5V0.7C2.6,1.6,1,4,0.4,6H1.2z"/>
				</g>
				<g>
					<path class="st2" d="M14.8,6h0.8C15,4,13.4,1.7,11,0.7v0.8C12.5,2.4,14.1,4,14.8,6z"/>
				</g>
				<g>
					<path class="st2" d="M8,14c-0.6,0-1-0.4-1-1V1c0-0.6,0.4-1,1-1s1,0.4,1,1v12C9,13.6,8.6,14,8,14z"/>
				</g>
				<g>
					<g>
						<polygon class="st2" points="15,9.6 8,7.1 1,9.6 1,8 8,5.2 15,7.9 						"/>
					</g>
				</g>
				<g>
					<path class="st2" d="M7,13l-1.8,1.3v1.5L8,15l2.8,0.8v-1.5L9,13"/>
				</g>
				<g>
					<path class="st2" d="M4,13.9c-1.1-0.7-1.9-1.7-2.5-2.9H0.7c0.7,1.6,1.8,2.9,3.3,3.8V13.9z"/>
				</g>
				<g>
					<path class="st2" d="M14.4,11c-0.5,1.2-1.4,2.1-2.4,2.9v0.9c1.4-0.9,2.6-2.2,3.3-3.7L14.4,11L14.4,11z"/>
				</g>
			</g>
			<g id="Layer_3_5_" class="st1">
				<g>
					<path class="st2" d="M12.5,8c0,0.5-0.4,1-0.9,1H4.4C3.9,9,3.5,8.5,3.5,8s0.4-1,0.9-1h7.2C12.1,7,12.5,7.5,12.5,8z"/>
				</g>
				<g>
					<path class="st2" d="M8,1.3c3.7,0,6.7,3,6.7,6.7s-3,6.7-6.7,6.7s-6.7-3-6.7-6.7S4.3,1.3,8,1.3 M8,0.5C3.9,0.5,0.5,3.9,0.5,8
						s3.4,7.5,7.5,7.5s7.5-3.4,7.5-7.5S12.1,0.5,8,0.5L8,0.5z"/>
				</g>
				<g>
					<g>
						<rect y="7.5" class="st2" width="1.2" height="1"/>
					</g>
				</g>
				<g>
					<g>
						<rect x="7.5" y="-0.1" class="st2" width="1" height="1.2"/>
					</g>
				</g>
				<g>
					<g>
						<rect x="7.5" y="14.9" class="st2" width="1" height="1.1"/>
					</g>
				</g>
				<g>
					<g>
						<rect x="14.9" y="7.5" class="st2" width="1.1" height="1"/>
					</g>
				</g>
			</g>
			<path class="st3" d="M8.6,7.8L13,9.3v-1l-4.4-2c0-1.1,0-2,0-2.7C8.6,3.3,8.4,3,8,3C7.6,3,7.4,3.3,7.4,3.7c0,0.6,0,1.6,0,2.6l0,0
				L3,8.3v1l4.4-1.4c0,1.2,0,2.4,0,3.3l0,0l-1,0.9V13l1-0.4l0,0L8,12.3l0.6,0.2l0,0c0.5,0.2,1,0.4,1,0.4V12l-1-0.9l0,0
				C8.6,10.3,8.6,9,8.6,7.8L8.6,7.8z"/>
			<g class="st1">
				<path class="st2" d="M14.9,6h0.9c-0.8-2.8-3-5-5.8-5.7v0.8C12.4,1.8,14.2,3.7,14.9,6z"/>
				<path class="st2" d="M14.9,10c-0.7,2.3-2.5,4.2-4.9,4.9v0.8c2.8-0.7,5-2.9,5.8-5.7H14.9z"/>
			</g>
			<g class="st1">
				<path class="st2" d="M1.1,10H0.3C1,12.8,3.2,15,6,15.7v-0.8C3.6,14.2,1.8,12.4,1.1,10z"/>
				<path class="st2" d="M0.3,6h0.8C1.8,3.6,3.6,1.8,6,1.1V0.3C3.2,1,1,3.2,0.3,6z"/>
			</g>
			<g class="st1">
				<rect y="7.5" class="st2" width="1.2" height="1"/>
			</g>
			<g class="st1">
				<rect x="7.5" y="-0.1" class="st2" width="1" height="1.2"/>
			</g>
			<g class="st1">
				<rect x="7.5" y="14.9" class="st2" width="1" height="1.1"/>
			</g>
			<g class="st1">
				<rect x="14.9" y="7.5" class="st2" width="1.1" height="1"/>
			</g>
		</g>
		<g id="Layer_1_18_" class="st0">
			<g id="Layer_1_19_" class="st1">
				<g>
					<path class="st2" d="M8,15c-3.9,0-7-3.1-7-7s3.1-7,7-7s7,3.1,7,7C15,11.8,11.9,15,8,15z M8,2C4.7,2,2,4.7,2,8s2.7,6,6,6
						s6-2.7,6-6S11.3,2,8,2z"/>
				</g>
				<g>
					<g>
						<path class="st2" d="M7.4,4.8c0-0.1,0-0.2,0.1-0.3c0-0.1,0.1-0.2,0.1-0.2c0.1-0.1,0.1-0.1,0.2-0.2C7.8,4,7.9,4,8,4
							c0.1,0,0.2,0,0.3,0.1c0.1,0,0.1,0.1,0.2,0.2c0.1,0.1,0.1,0.1,0.1,0.2s0.1,0.2,0.1,0.3v2.1l2.6,1.5v1l-2.6-1V11l0.4,0.3V12
							L8,11.6L6.9,12v-0.7L7.4,11V8.4l-2.6,1v-1l2.6-1.5V4.8z"/>
					</g>
				</g>
				<g>
					<g>
						<rect y="7.5" class="st2" width="2" height="1"/>
					</g>
				</g>
				<g>
					<g>
						<rect x="7.5" class="st2" width="1" height="2"/>
					</g>
				</g>
				<g>
					<g>
						<rect x="7.5" y="14" class="st2" width="1" height="2"/>
					</g>
				</g>
				<g>
					<g>
						<rect x="14" y="7.5" class="st2" width="2" height="1"/>
					</g>
				</g>
			</g>
			<g id="Layer_2_5_" class="st1">
				<g>
					<rect y="7.5" class="st2" width="1.2" height="1"/>
				</g>
				<g>
					<rect x="7.5" y="-0.1" class="st2" width="1" height="1.2"/>
				</g>
				<g>
					<rect x="7.5" y="14.9" class="st2" width="1" height="1.1"/>
				</g>
				<g>
					<rect x="14.9" y="7.5" class="st2" width="1.1" height="1"/>
				</g>
				<g>
					<path class="st2" d="M6,0.3C3.2,1,1,3.2,0.3,6h1C2,3.7,3.8,2,6,1.3V0.3z"/>
					<path class="st2" d="M10,0.2v1.1C12.2,2,14,3.8,14.7,6h1C15,3.2,12.8,1,10,0.2z"/>
				</g>
				<g>
					<path class="st2" d="M14.7,10c-0.7,2.3-2.5,4-4.7,4.7v1.1c2.8-0.7,5-2.9,5.7-5.7h-1V10z"/>
					<path class="st2" d="M6,14.7C3.8,14,2,12.3,1.3,10h-1C1,12.8,3.2,15,6,15.7V14.7z"/>
				</g>
				<g>
					<path class="st2" d="M7.4,4.8c0-0.1,0-0.2,0.1-0.3c0-0.1,0.1-0.2,0.1-0.2c0.1-0.1,0.1-0.1,0.2-0.2C7.8,4,7.9,4,8,4
						c0.1,0,0.2,0,0.3,0.1c0.1,0,0.1,0.1,0.2,0.2c0.1,0.1,0.1,0.1,0.1,0.2s0.1,0.2,0.1,0.3v2.1l2.6,1.5v1l-2.6-1V11l0.4,0.3V12
						L8,11.6L6.9,12v-0.7L7.4,11V8.4l-2.6,1v-1l2.6-1.5V4.8z"/>
				</g>
			</g>
			<g id="Layer_2_copy_9_" class="st1">
				<g>
					<path class="st2" d="M1.2,6C1.9,4,3.5,2.4,5,1.5V0.7C2.6,1.6,1,4,0.4,6H1.2z"/>
				</g>
				<g>
					<path class="st2" d="M14.8,6h0.8C15,4,13.4,1.7,11,0.7v0.8C12.5,2.4,14.1,4,14.8,6z"/>
				</g>
				<g>
					<path class="st2" d="M8,14c-0.6,0-1-0.4-1-1V1c0-0.6,0.4-1,1-1s1,0.4,1,1v12C9,13.6,8.6,14,8,14z"/>
				</g>
				<g>
					<g>
						<polygon class="st2" points="15,9.6 8,7.1 1,9.6 1,8 8,5.2 15,7.9 						"/>
					</g>
				</g>
				<g>
					<path class="st2" d="M7,13l-1.8,1.3v1.5L8,15l2.8,0.8v-1.5L9,13"/>
				</g>
				<g>
					<path class="st2" d="M4,13.9c-1.1-0.7-1.9-1.7-2.5-2.9H0.7c0.7,1.6,1.8,2.9,3.3,3.8V13.9z"/>
				</g>
				<g>
					<path class="st2" d="M14.4,11c-0.5,1.2-1.4,2.1-2.4,2.9v0.9c1.4-0.9,2.6-2.2,3.3-3.7L14.4,11L14.4,11z"/>
				</g>
			</g>
		</g>
		<g id="Layer_1_17_" class="st0">
			<g class="st1">
				<path class="st2" d="M8,15c-3.9,0-7-3.1-7-7s3.1-7,7-7s7,3.1,7,7C15,11.8,11.9,15,8,15z M8,2C4.7,2,2,4.7,2,8s2.7,6,6,6
					s6-2.7,6-6S11.3,2,8,2z"/>
			</g>
			<g class="st1">
				<g>
					<path class="st2" d="M7.4,4.8c0-0.1,0-0.2,0.1-0.3c0-0.1,0.1-0.2,0.1-0.2c0.1-0.1,0.1-0.1,0.2-0.2C7.8,4,7.9,4,8,4
						c0.1,0,0.2,0,0.3,0.1c0.1,0,0.1,0.1,0.2,0.2c0.1,0.1,0.1,0.1,0.1,0.2s0.1,0.2,0.1,0.3v2.1l2.6,1.5v1l-2.6-1V11l0.4,0.3V12
						L8,11.6L6.9,12v-0.7L7.4,11V8.4l-2.6,1v-1l2.6-1.5V4.8z"/>
				</g>
			</g>
			<g class="st1">
				<g>
					<rect y="7.5" class="st2" width="2" height="1"/>
				</g>
			</g>
			<g class="st1">
				<g>
					<rect x="7.5" class="st2" width="1" height="2"/>
				</g>
			</g>
			<g class="st1">
				<g>
					<rect x="7.5" y="14" class="st2" width="1" height="2"/>
				</g>
			</g>
			<g class="st1">
				<g>
					<rect x="14" y="7.5" class="st2" width="2" height="1"/>
				</g>
			</g>
		</g>
		<g id="Layer_2_copy_8_" class="st0">
			<g class="st1">
				<path class="st2" d="M1.2,6C1.9,4,3.5,2.4,5,1.5V0.7C2.6,1.6,1,4,0.4,6H1.2z"/>
			</g>
			<g class="st1">
				<path class="st2" d="M14.8,6h0.8C15,4,13.4,1.7,11,0.7v0.8C12.5,2.4,14.1,4,14.8,6z"/>
			</g>
			<g class="st1">
				<path class="st2" d="M8,14c-0.6,0-1-0.4-1-1V1c0-0.6,0.4-1,1-1s1,0.4,1,1v12C9,13.6,8.6,14,8,14z"/>
			</g>
			<g class="st1">
				<g>
					<polygon class="st2" points="15,9.6 8,7.1 1,9.6 1,8 8,5.2 15,7.9 					"/>
				</g>
			</g>
			<g class="st1">
				<path class="st2" d="M7,13l-1.8,1.3v1.5L8,15l2.8,0.8v-1.5L9,13"/>
			</g>
			<g class="st1">
				<path class="st2" d="M4,13.9c-1.1-0.7-1.9-1.7-2.5-2.9H0.7c0.7,1.6,1.8,2.9,3.3,3.8V13.9z"/>
			</g>
			<g class="st1">
				<path class="st2" d="M14.4,11c-0.5,1.2-1.4,2.1-2.4,2.9v0.9c1.4-0.9,2.6-2.2,3.3-3.7L14.4,11L14.4,11z"/>
			</g>
		</g>
		<g id="Layer_3_4_" class="st0">
			<g class="st1">
				<path class="st2" d="M12.5,8c0,0.5-0.4,1-0.9,1H4.4C3.9,9,3.5,8.5,3.5,8s0.4-1,0.9-1h7.2C12.1,7,12.5,7.5,12.5,8z"/>
			</g>
			<g class="st1">
				<path class="st2" d="M8,1.3c3.7,0,6.7,3,6.7,6.7s-3,6.7-6.7,6.7s-6.7-3-6.7-6.7S4.3,1.3,8,1.3 M8,0.5C3.9,0.5,0.5,3.9,0.5,8
					s3.4,7.5,7.5,7.5s7.5-3.4,7.5-7.5S12.1,0.5,8,0.5L8,0.5z"/>
			</g>
			<g class="st1">
				<g>
					<rect y="7.5" class="st2" width="1.2" height="1"/>
				</g>
			</g>
			<g class="st1">
				<g>
					<rect x="7.5" y="-0.1" class="st2" width="1" height="1.2"/>
				</g>
			</g>
			<g class="st1">
				<g>
					<rect x="7.5" y="14.9" class="st2" width="1" height="1.1"/>
				</g>
			</g>
			<g class="st1">
				<g>
					<rect x="14.9" y="7.5" class="st2" width="1.1" height="1"/>
				</g>
			</g>
		</g>
		<g>
			<path class="st2" d="M8,1.8c3.4,0,6.2,2.8,6.2,6.2s-2.8,6.2-6.2,6.2S1.8,11.4,1.8,8S4.6,1.8,8,1.8 M8,1C4.1,1,1,4.1,1,8
				s3.1,7,7,7s7-3.1,7-7S11.9,1,8,1L8,1z"/>
		</g>
		<g>
			<rect y="7.5" class="st2" width="1.2" height="1"/>
		</g>
		<g>
			<rect x="7.5" y="-0.1" class="st2" width="1" height="1.2"/>
		</g>
		<g>
			<rect x="7.5" y="14.9" class="st2" width="1" height="1.1"/>
		</g>
		<g>
			<rect x="14.9" y="7.5" class="st2" width="1.1" height="1"/>
		</g>
	</g>
</g>
<g>
	<g>
		<path class="st2" d="M6.1,10.9c-0.2,0-0.4-0.2-0.4-0.4v-5c0-0.2,0.2-0.4,0.4-0.4c0.2,0,0.4,0.2,0.4,0.4v5
			C6.5,10.7,6.3,10.9,6.1,10.9z"/>
	</g>
	<g>
		<path class="st2" d="M9.9,10.9c-0.2,0-0.4-0.2-0.4-0.4v-5c0-0.2,0.2-0.4,0.4-0.4s0.4,0.2,0.4,0.4v5C10.3,10.7,10.2,10.9,9.9,10.9z
			"/>
	</g>
	<g>
		<path class="st2" d="M9.6,8.5H6.5C6.2,8.5,6,8.3,6,8s0.2-0.4,0.4-0.4h3.2c0.2,0,0.4,0.2,0.4,0.4S9.9,8.5,9.6,8.5z"/>
	</g>
</g>
</svg>
