<svg version="1.1" id="Layer_1" xmlns="http://www.w3.org/2000/svg" xmlns:xlink="http://www.w3.org/1999/xlink" x="0px" y="0px"
	 viewBox="0 0 301.4 40.2" style="enable-background:new 0 0 301.4 40.2;" xml:space="preserve">
<style type="text/css">
	.st0{fill:#FFFFFF;}
</style>
<g>
	<g>
		<path class="st0" d="M287.1,40.3c-8.9,0-13.5-9-13.7-9.4l5.6-2.8c0,0.1,3.1,6,8.2,6c3.4,0,7.3-1.1,8-4.9c0.8-4.5-4.6-5.9-7.9-7
			c-5-1.8-11.2-4-11.2-10.5c0-6.4,4.8-10.9,11.8-10.9c7.5,0,11.7,5.4,11.9,5.6l-4.9,3.8c-0.1-0.1-2.6-3.2-7-3.2
			c-1.7,0-5.6,0.5-5.6,4.7c0,1.9,2.7,3,7.1,4.6c5,1.8,11.3,4.1,12,10.5c0.4,3.6-0.6,6.8-2.7,9.2C296.1,38.7,292,40.3,287.1,40.3z"/>
	</g>
	<path class="st0" d="M262.2,38.5h6.2L249.8,0.3l-18.4,38.3h6.1l3.4-7.1h17.8L262.2,38.5z M243.5,26.1l6.3-13l6.3,13H243.5z"/>
	<polygon class="st0" points="192,1.7 165.2,1.7 165.2,7.5 175.4,7.5 175.4,38.5 181.9,38.5 181.9,7.5 192,7.5 	"/>
	<path class="st0" d="M155.6,38.5h6.2L143.2,0.3l-18.4,38.3h6.1l3.4-7.1h17.8L155.6,38.5z M136.9,26.1l6.3-13l6.3,13H136.9z"/>
	<polygon class="st0" points="209.9,32.7 209.9,1.9 203.4,1.9 203.4,32.7 203.4,38.5 209.9,38.5 224.7,38.5 224.7,32.7 	"/>
	<polygon class="st0" points="32,1.7 26.4,1.7 26.4,27.1 0,0 0,38.5 5.5,38.5 5.5,12.7 32,40.2 	"/>
	<path class="st0" d="M48.1,1.7h23.5v5.5h-18v9.2h16.9V22H53.6V33h17.9v5.5H48.1V1.7z"/>
	<g>
		<path class="st0" d="M81.8,1.7l7.3,0l8.2,12.8l3.1,4.8l-3.1,4.8L88,38.5h-7.1l12.6-19.2L81.8,1.7z"/>
		<polygon class="st0" points="106.2,19.4 117.9,1.7 110.6,1.7 102.4,14.5 102.3,14.6 105.4,19.4 102.3,24.1 102.4,24.2 111.7,38.5
			118.8,38.5 		"/>
	</g>
</g>
</svg>
