<svg version="1.1" id="Layer_1" xmlns="http://www.w3.org/2000/svg" xmlns:xlink="http://www.w3.org/1999/xlink" x="0px" y="0px"
	 viewBox="0 0 393.4 78.6" style="enable-background:new 0 0 393.4 78.6;" xml:space="preserve">
<style type="text/css">
	.st0{fill:#00B783;}
	.st1{fill:#FFFFFF;}
</style>
<g>
	<path class="st0" d="M64.9,72.7L52.7,47.5l3.7-6.4c0.3-0.5,0.3-1.2,0-1.7c-0.3-0.5-0.9-0.9-1.5-0.9l-6.5,0l-10.6-22l4.5-5.6
		c0.5-0.6,0.5-1.5,0-2.1L36,0.7C35.7,0.3,35.2,0,34.7,0c0,0,0,0,0,0c-0.5,0-1,0.3-1.3,0.7l-6.5,8c-0.5,0.6-0.5,1.5,0,2.1l4.3,5.6
		L8,64.2c-0.3,0-0.5-0.1-0.8-0.1c-4,0-7.2,3.2-7.2,7.2c0,4,3.2,7.2,7.2,7.2s7.2-3.2,7.2-7.2c0-0.3,0-0.7-0.1-1l28.8-19.8l2.4,4.2
		c0.3,0.5,0.8,0.8,1.4,0.9c0,0,0.1,0,0.1,0c0.6,0,1.2-0.3,1.5-0.9l1.1-1.9l10.6,22.1L64.9,72.7z M34.7,4.5l4.2,5.4l-4.3,5.3
		l-4.2-5.4L34.7,4.5z M7.2,75.3c-2.1,0-3.9-1.7-3.9-3.9c0-2.1,1.7-3.9,3.9-3.9c2.1,0,3.9,1.7,3.9,3.9C11.1,73.5,9.3,75.3,7.2,75.3z
		 M13.3,64.9l21.1-43.6l8.3,17.3l-3.6,0c-0.6,0-1.2,0.3-1.5,0.9c-0.3,0.5-0.3,1.2,0,1.7l2.9,5L13.3,64.9z M47,50.5L42.1,42l9.8,0
		L47,50.5z"/>
	<g>
		<g>
			<path class="st1" d="M379.1,63.2c-8.9,0-13.5-9-13.7-9.4L371,51c0,0.1,3.1,6,8.2,6c3.4,0,7.3-1.1,8-4.9c0.8-4.5-4.6-5.9-7.9-7
				c-5-1.8-11.2-4-11.2-10.5c0-6.4,4.8-10.9,11.8-10.9c7.5,0,11.7,5.4,11.9,5.6l-4.9,3.8c-0.1-0.1-2.6-3.2-7-3.2
				c-1.7,0-5.6,0.5-5.6,4.7c0,1.9,2.7,3,7.1,4.6c5,1.8,11.3,4.1,12,10.5c0.4,3.6-0.6,6.8-2.7,9.2C388.1,61.6,384,63.2,379.1,63.2z"
				/>
		</g>
		<path class="st1" d="M354.2,61.4h6.2l-18.6-38.3l-18.4,38.3h6.1l3.4-7.1h17.8L354.2,61.4z M335.5,49l6.3-13l6.3,13H335.5z"/>
		<polygon class="st1" points="284,24.6 257.2,24.6 257.2,30.4 267.4,30.4 267.4,61.4 273.9,61.4 273.9,30.4 284,30.4 		"/>
		<path class="st1" d="M247.6,61.4h6.2l-18.6-38.3l-18.4,38.3h6.1l3.4-7.1h17.8L247.6,61.4z M228.9,49l6.3-13l6.3,13H228.9z"/>
		<polygon class="st1" points="301.9,55.6 301.9,24.8 295.4,24.8 295.4,55.6 295.4,61.4 301.9,61.4 316.8,61.4 316.8,55.6 		"/>
		<polygon class="st1" points="124,24.6 118.5,24.6 118.5,50 92,22.9 92,61.4 97.6,61.4 97.6,35.6 124,63.1 		"/>
		<path class="st1" d="M140.1,24.6h23.5v5.5h-18v9.2h16.9v5.5h-16.9v11.1h17.9v5.5h-23.4L140.1,24.6L140.1,24.6z"/>
		<g>
			<path class="st1" d="M173.8,24.6l7.3,0l8.2,12.8l3.1,4.8l-3.1,4.8L180,61.4h-7.1l12.6-19.2L173.8,24.6z"/>
			<polygon class="st1" points="198.3,42.3 209.9,24.6 202.6,24.6 194.4,37.4 194.3,37.5 197.4,42.3 194.3,47 194.4,47.1
				203.7,61.4 210.8,61.4 			"/>
		</g>
	</g>
</g>
</svg>
