<svg version="1.1" id="Layer_1" xmlns="http://www.w3.org/2000/svg" xmlns:xlink="http://www.w3.org/1999/xlink" x="0px" y="0px"
	 viewBox="0 0 297 197" style="enable-background:new 0 0 297 197;" xml:space="preserve">
<style type="text/css">
	.st0{fill:#FFFFFF;}
	.st1{fill:#00B96D;}
</style>
<g>
	<path class="st0" d="M140.1,121.8h-2.9c0-18.3-14.9-33.2-33.2-33.2v-2.9C123.9,85.7,140.1,101.9,140.1,121.8z"/>
</g>
<g>
	<path class="st0" d="M105.5,100.6l-2.9-0.6c0.7-3.2,1-6.5,1-9.8c0-26.8-21.8-48.5-48.5-48.5c-26.7,0-48.5,21.8-48.5,48.5H3.7
		c0-28.4,23.1-51.4,51.4-51.4c28.4,0,51.4,23.1,51.4,51.4C106.6,93.7,106.2,97.2,105.5,100.6z"/>
</g>
<g>
	<g>
		<g>

				<rect x="186.9" y="111.8" transform="matrix(0.6386 -0.7695 0.7695 0.6386 -11.0716 200.9066)" class="st0" width="42.9" height="1"/>
		</g>
	</g>
	<g>
		<g>

				<rect x="112.2" y="67.3" transform="matrix(0.9369 -0.3497 0.3497 0.9369 -15.8259 48.0091)" class="st0" width="25.6" height="1"/>
		</g>
	</g>
	<g>
		<g>

				<rect x="76.1" y="140.1" transform="matrix(0.7835 -0.6214 0.6214 0.7835 -59.9951 108.8709)" class="st0" width="100.4" height="1"/>
		</g>
	</g>
	<g>
		<g>
			<polygon class="st0" points="178.6,102.1 160.4,65.5 287.9,6.8 288.7,8.6 163.1,66.4 179.3,99.2 203.8,81.3 204.9,82.8 			"/>
		</g>
	</g>
	<g>
		<g>
			<line class="st1" x1="178.9" y1="100.7" x2="192.7" y2="77"/>
		</g>
		<g>

				<rect x="172.1" y="87.9" transform="matrix(0.5022 -0.8647 0.8647 0.5022 15.6902 204.9037)" class="st0" width="27.4" height="1.9"/>
		</g>
	</g>
	<g>
		<g>

				<rect x="70.8" y="67.3" transform="matrix(0.9446 -0.3282 0.3282 0.9446 -16.1112 40.1694)" class="st0" width="80.2" height="1"/>
		</g>
	</g>
	<g>
		<polygon class="st0" points="177.5,106.5 181.2,103.8 204.9,86.5 214.3,90.6 217.1,87.6 204.4,82.1 178.9,100.7 161.8,66
			142,59.8 136.1,62 159,69.2 175.5,102.4 		"/>
		<polygon class="st0" points="283.3,7.8 127.9,52 115.4,55.5 127.8,59.4 128.5,59.6 134.4,57.4 129,55.7 284.4,11.6 227.7,92.3
			221.8,89.7 219,92.7 226.1,95.8 229,97.1 230.9,94.5 287.6,13.8 293.9,4.9 		"/>
	</g>
	<g>
		<g>

				<rect x="149" y="114.4" transform="matrix(0.6893 -0.7245 0.7245 0.6893 -22.7407 176.6539)" class="st0" width="91.2" height="1"/>
		</g>
	</g>
	<polygon class="st0" points="291.3,5.5 125.7,55.7 133,58 135.9,56.9 132.3,55.7 283,9.6 287.6,8.7 161.7,64.9 143.5,59.2
		140.5,60.3 161.8,67 292,7.3 	"/>
	<path class="st0" d="M292.3,5.8c-0.3-0.3-0.9-0.4-1.3-0.1l-98.9,70.5c-0.3,0.2-0.4,0.5-0.4,0.9c0,0.3,0.3,0.6,0.6,0.8l24.1,10.5
		l1.4-1.5l-23.1-10.1L291,7l-63.6,84.1l-4.8-2.1l-1.4,1.5l6.2,2.7c0.1,0.1,0.3,0.1,0.4,0.1c0.3,0,0.6-0.1,0.8-0.4L292.4,7
		C292.6,6.6,292.6,6.1,292.3,5.8z"/>
</g>
<g>
	<path class="st0" d="M201.5,191.3h-2.9c0-17-13.8-30.8-30.8-30.8s-30.8,13.8-30.8,30.8H134c0-18.6,15.1-33.8,33.8-33.8
		S201.5,172.7,201.5,191.3z"/>
</g>
<g>
	<path class="st0" d="M276.8,165.7c-9.8-19.3-29.2-31.3-50.9-31.3c-19.1,0-36.9,9.5-47.5,25.4l-2.4-1.6
		c11.1-16.7,29.8-26.7,49.9-26.7c22.7,0,43.2,12.6,53.5,32.9L276.8,165.7z"/>
</g>
</svg>
