<?xml version="1.0" encoding="utf-8"?>
<!-- Generator: Adobe Illustrator 20.0.0, SVG Export Plug-In . SVG Version: 6.00 Build 0)  -->
<svg version="1.1" id="Camada_1" xmlns="http://www.w3.org/2000/svg" xmlns:xlink="http://www.w3.org/1999/xlink" x="0px" y="0px"
	 viewBox="0 0 20 20" style="enable-background:new 0 0 20 20;" xml:space="preserve">
<style type="text/css">
	.st0{fill:#FDBE32;}
</style>
<g>
	<path class="st0" d="M0,9.5h17.6L9.9,1.8l0.9-0.9l9.2,9.2l-9.2,9.1l-0.9-0.8l7.7-7.7H0V9.5z"/>
</g>
</svg>
