<?xml version="1.0" encoding="utf-8"?>
<!-- Generator: Adobe Illustrator 20.0.0, SVG Export Plug-In . SVG Version: 6.00 Build 0)  -->
<svg version="1.1" id="Camada_1" xmlns="http://www.w3.org/2000/svg" xmlns:xlink="http://www.w3.org/1999/xlink" x="0px" y="0px"
	 viewBox="0 0 20 20" style="enable-background:new 0 0 20 20;" xml:space="preserve">
<style type="text/css">
	.st0{fill:#FFFFFF;}
</style>
<path class="st0" d="M10,2.8L9.8,2.9L0.5,6.4L0,6.6v0.5v0.1v0.5l0.5,0.2l9.3,3.5l0.2,0.1l0.2-0.1l9.3-3.5L20,7.7V7.2V7.1V6.6
	l-0.5-0.2l-9.3-3.5L10,2.8z M10,4.3l7.4,2.8L10,9.9L2.6,7.1L10,4.3z M0,8.5v2l10,3.8l10-3.8v-2L18.6,9v0.5L10,12.8L1.4,9.6V9L0,8.5z
	 M0,11.4v2l10,3.8l10-3.8v-2l-1.4,0.5v0.5L10,15.7l-8.6-3.2V12L0,11.4z"/>
</svg>
