<?xml version="1.0" encoding="utf-8"?>
<!-- Generator: Adobe Illustrator 20.0.0, SVG Export Plug-In . SVG Version: 6.00 Build 0)  -->
<svg version="1.1" id="Camada_1" xmlns="http://www.w3.org/2000/svg" xmlns:xlink="http://www.w3.org/1999/xlink" x="0px" y="0px"
	 viewBox="0 0 20 20" style="enable-background:new 0 0 20 20;" xml:space="preserve">
<style type="text/css">
	.st0{fill:#FFFFFF;}
</style>
<g>
	<rect x="3.1" y="5.1" class="st0" width="13" height="1.3"/>
	<g>
		<path class="st0" d="M0,0.8h20v13.8H7.2l-4.6,4.6v-4.6H0V0.8z M18.8,13.3V2H1.3v11.2h2.5v2.9l2.9-2.9L18.8,13.3L18.8,13.3z"/>
	</g>
	<rect x="3.1" y="8.1" class="st0" width="6.8" height="1.3"/>
</g>
</svg>
