<?xml version="1.0" encoding="utf-8"?>
<!-- Generator: Adobe Illustrator 20.0.0, SVG Export Plug-In . SVG Version: 6.00 Build 0)  -->
<svg version="1.1" id="Camada_1" xmlns="http://www.w3.org/2000/svg" xmlns:xlink="http://www.w3.org/1999/xlink" x="0px" y="0px"
	 viewBox="0 0 20 20" style="enable-background:new 0 0 20 20;" xml:space="preserve">
<style type="text/css">
	.st0{fill:#FFFFFF;}
</style>
<g>
	<g>
		<path class="st0" d="M11.4,6.4c-0.5-0.2-1-0.3-1.5-0.3c-1.6,0-3,0.9-3.6,2.4c-0.8,2,0.1,4.2,2.1,5c0.5,0.2,1,0.3,1.5,0.3
			c1.6,0,3-0.9,3.6-2.4C14.3,9.6,13.3,7.2,11.4,6.4z M12.4,11.1c-0.4,1-1.4,1.6-2.5,1.6c-0.4,0-0.7-0.1-1-0.2
			c-1.4-0.6-2-2.1-1.5-3.5c0.4-1,1.4-1.7,2.5-1.7c0.4,0,0.7,0.1,1,0.2C12.3,8.1,12.9,9.6,12.4,11.1z M17.5,9.6l2.4-1.8l-1.4-3.4
			l-3,0.5c-0.2-0.2-0.4-0.4-0.6-0.6l0.5-3l-3.3-1.3l-1.8,2.4c-0.2,0-0.5,0-0.8,0L7.7-0.1L4.3,1.3l0.5,3C4.6,4.5,4.5,4.8,4.3,4.9
			l-3-0.5l-1.4,3.3l2.4,1.8c0,0.2,0,0.5,0,0.8l-2.4,1.8l1.4,3.4l3-0.5c0.2,0.2,0.4,0.4,0.6,0.6l-0.5,3L7.8,20l1.8-2.4
			c0.2,0,0.5,0,0.8,0l1.8,2.4l3.4-1.4l-0.5-3c0.2-0.2,0.4-0.4,0.6-0.6l3,0.5l1.4-3.4l-2.4-1.8C17.5,10.1,17.5,9.8,17.5,9.6z
			 M17.8,14.2L15,13.9l-0.2,0.2c-0.2,0.3-0.6,0.6-0.9,0.9l-0.2,0.2l0.4,2.8l-1.6,0.7l-1.6-2.3h-0.3c-0.4,0-0.8,0-1.2,0H9.1l-1.6,2.2
			l-1.6-0.7L6.3,15l-0.4-0.1c-0.3-0.2-0.6-0.6-0.9-0.9l-0.1-0.3l-2.8,0.4l-0.7-1.6l2.3-1.6v-0.3c0-0.4,0-0.8,0-1.2V9.1L1.4,7.4
			l0.7-1.6l2.8,0.4l0.2-0.2c0.2-0.3,0.5-0.6,0.8-0.9l0.3-0.2L5.7,2.1l1.6-0.7l1.6,2.2h0.3c0.4,0,0.8,0,1.2,0h0.3l1.6-2.2l1.6,0.7
			l-0.2,2.8l0.2,0.2c0.3,0.2,0.6,0.6,0.9,0.9L15,6.2l2.8-0.4l0.7,1.6L16.3,9v0.3c0,0.4,0,0.8,0,1.2v0.3l2.2,1.6L17.8,14.2z"/>
	</g>
</g>
</svg>
