<?xml version="1.0" encoding="utf-8"?>
<!-- Generator: Adobe Illustrator 20.0.0, SVG Export Plug-In . SVG Version: 6.00 Build 0)  -->
<svg version="1.1" id="Camada_1" xmlns="http://www.w3.org/2000/svg" xmlns:xlink="http://www.w3.org/1999/xlink" x="0px" y="0px"
	 viewBox="0 0 20 20" style="enable-background:new 0 0 20 20;" xml:space="preserve">
<style type="text/css">
	.st0{fill:#FFFFFF;}
</style>
<path class="st0" d="M20,0.4l-1.2,0.5l-5.5,2.4L7,0.9L6.6,0.8L6.3,0.9L0.5,3.4L0,3.6v0.6v14.2v1.3l1.2-0.5l5.5-2.4l6.4,2.4l0.3,0.1
	l0.3-0.1l5.8-2.5l0.5-0.2v-0.6V1.7V0.4z M7.5,2.9l5,1.9v12.4l-5-1.9V2.9z M5.8,2.9v12.4L1.6,17V4.7L5.8,2.9z M18.3,2.9v12.4L14.1,17
	V4.7L18.3,2.9z"/>
</svg>
