<?xml version="1.0" encoding="utf-8"?>
<!-- Generator: Adobe Illustrator 20.0.0, SVG Export Plug-In . SVG Version: 6.00 Build 0)  -->
<svg version="1.1" id="Camada_1" xmlns="http://www.w3.org/2000/svg" xmlns:xlink="http://www.w3.org/1999/xlink" x="0px" y="0px"
	 viewBox="0 0 20 20" style="enable-background:new 0 0 20 20;" xml:space="preserve">
<style type="text/css">
	.st0{fill:#FFFFFF;}
</style>
<path id="XMLID_1_" class="st0" d="M12.2,0C8,0,4.5,3.5,4.5,7.8c0,1.9,0.6,3.6,1.8,4.9L0,18.9L1.1,20l6.2-6.2c1.4,1.1,3,1.8,4.9,1.8
	c4.3,0,7.8-3.5,7.8-7.8S16.5,0,12.2,0z M12.2,1.6c3.4,0,6.2,2.8,6.2,6.2S15.7,14,12.2,14S6,11.2,6,7.8S8.8,1.6,12.2,1.6z"/>
</svg>
