<?xml version="1.0" encoding="utf-8"?>
<!-- Generator: Adobe Illustrator 20.0.0, SVG Export Plug-In . SVG Version: 6.00 Build 0)  -->
<svg version="1.1" id="Camada_1" xmlns="http://www.w3.org/2000/svg" xmlns:xlink="http://www.w3.org/1999/xlink" x="0px" y="0px"
	 viewBox="0 0 20 20" style="enable-background:new 0 0 20 20;" xml:space="preserve">
<style type="text/css">
	.st0{fill:#FFFFFF;}
</style>
<g>
	<path class="st0" d="M19.2,6.1C19.7,7.4,20,8.7,20,10c0,1.4-0.3,2.6-0.8,3.9C18.7,15.1,18,16.1,17,17c-0.9,0.9-2,1.6-3.2,2.2
		C12.6,19.7,11.3,20,10,20c-1.1,0-2.2-0.2-3.3-0.6s-2-0.9-2.8-1.5s-1.6-1.4-2.2-2.3c-0.3-0.4-0.6-0.9-0.8-1.4s-0.4-1-0.6-1.5
		l1.2-0.3c0.3,1,0.7,1.8,1.2,2.6c0.6,0.8,1.2,1.5,1.9,2c0.7,0.6,1.6,1,2.5,1.3s1.8,0.5,2.8,0.5c0.8,0,1.6-0.1,2.3-0.3
		c0.8-0.2,1.4-0.5,2.1-0.9c0.6-0.4,1.2-0.8,1.8-1.4c0.5-0.5,1-1.1,1.4-1.8c0.4-0.6,0.7-1.4,0.9-2.1c0.2-0.8,0.3-1.5,0.3-2.3
		s-0.1-1.6-0.3-2.3s-0.5-1.4-0.9-2.1c-0.4-0.6-0.8-1.2-1.4-1.8c-0.5-0.5-1.1-1-1.8-1.4c-0.6-0.4-1.4-0.7-2.1-0.9
		c-0.8-0.2-1.5-0.3-2.3-0.3S8.2,1.3,7.4,1.6C6.7,2,6,2.3,5.3,2.7S4,3.7,3.4,4.3s-1,1.3-1.4,2h3v1.2H0v-5h1.2v2.7
		C1.4,5,1.5,4.8,1.6,4.6C1.7,4.4,1.9,4.2,2,4c0.6-0.8,1.3-1.5,2.2-2.1S6,0.8,6.9,0.5S8.9,0,10,0c1.4,0,2.6,0.3,3.9,0.8
		C15.1,1.3,16.1,2,17,3C18,3.8,18.7,4.9,19.2,6.1z M10,5v5.4l3.6,3.6l-0.9,0.9L8.8,11V5H10z"/>
</g>
</svg>
