<?xml version="1.0" encoding="utf-8"?>
<!-- Generator: Adobe Illustrator 20.0.0, SVG Export Plug-In . SVG Version: 6.00 Build 0)  -->
<svg version="1.1" id="Camada_1" xmlns="http://www.w3.org/2000/svg" xmlns:xlink="http://www.w3.org/1999/xlink" x="0px" y="0px"
	 viewBox="0 0 20 20" style="enable-background:new 0 0 20 20;" xml:space="preserve">
<style type="text/css">
	.st0{fill:#FFFFFF;}
</style>
<path class="st0" d="M13.7,0l-0.6,0.6L0.6,13.1L0,13.7l0.6,0.6l5.2,5.2L6.3,20l0.6-0.6L19.4,6.9L20,6.3l-0.6-0.6l-5.2-5.2L13.7,0z
	 M13.7,2.3l4.1,4.1L6.3,17.7l-4.1-4.1l0.9-0.9L5,14.5l1.2-1.1l-1.8-1.8l1-0.9L6,11.3l1.1-1.2L6.4,9.5l1-1l1.7,1.7l1.1-1.1L8.5,7.4
	l1-1l0.7,0.7L11.3,6l-0.7-0.7l0.9-1l1.8,1.8L14.5,5l-1.7-1.7L13.7,2.3z"/>
</svg>
