<?xml version="1.0" encoding="utf-8"?>
<!-- Generator: Adobe Illustrator 20.0.0, SVG Export Plug-In . SVG Version: 6.00 Build 0)  -->
<svg version="1.1" id="Camada_1" xmlns="http://www.w3.org/2000/svg" xmlns:xlink="http://www.w3.org/1999/xlink" x="0px" y="0px"
	 viewBox="0 0 20 20" style="enable-background:new 0 0 20 20;" xml:space="preserve">
<style type="text/css">
	.st0{fill:#FFFFFF;}
</style>
<g>
	<path class="st0" d="M7.2,11.2C7.7,11.4,8,11.6,8.4,12c0.4,0.3,0.6,0.7,0.9,1c0.2,0.4,0.4,0.8,0.6,1.2s0.2,0.9,0.2,1.4H8.8
		c0-0.5-0.1-1-0.3-1.4S8,13.4,7.7,13c-0.3-0.3-0.7-0.6-1.2-0.8c-0.4-0.2-1-0.3-1.4-0.3s-1,0.1-1.4,0.3S2.9,12.7,2.5,13
		c-0.3,0.3-0.6,0.7-0.8,1.2c-0.2,0.4-0.3,1-0.3,1.4H0c0-0.5,0.1-0.9,0.2-1.4s0.3-0.9,0.6-1.2c0.2-0.4,0.5-0.7,0.9-1s0.7-0.6,1.2-0.8
		C2.3,10.8,2,10.4,1.7,9.8s-0.4-1-0.4-1.6c0-0.5,0.1-1,0.3-1.4C1.8,6.4,2,5.9,2.4,5.5c0.3-0.3,0.7-0.6,1.2-0.8C4,4.5,4.5,4.4,5,4.4
		s1,0.1,1.4,0.3c0.4,0.2,0.8,0.5,1.2,0.8C8,5.8,8.2,6.2,8.4,6.7c0.2,0.4,0.3,1,0.3,1.4c0,0.6-0.1,1.2-0.4,1.7
		C8.1,10.4,7.7,10.8,7.2,11.2z M2.5,8.1c0,0.4,0.1,0.7,0.2,1S3,9.6,3.2,9.9c0.2,0.2,0.5,0.4,0.8,0.5s0.6,0.2,1,0.2s0.7-0.1,1-0.2
		c0.3-0.1,0.6-0.3,0.8-0.5C7,9.6,7.2,9.4,7.3,9.1c0.1-0.3,0.2-0.6,0.2-1s-0.1-0.7-0.2-1C7.2,6.8,7,6.6,6.8,6.4C6.5,6.1,6.3,6,6,5.8
		C5.6,5.7,5.3,5.6,5,5.6c-0.4,0-0.7,0.1-1,0.2C3.7,6,3.5,6.2,3.2,6.4C3,6.6,2.8,6.8,2.7,7.2C2.6,7.5,2.5,7.8,2.5,8.1z M20,4.4v1.2
		h-8.8V4.4H20z M11.2,9.4H20v1.2h-8.8V9.4z M11.2,14.4H20v1.2h-8.8V14.4z"/>
</g>
</svg>
