<?xml version="1.0" encoding="utf-8"?>
<!-- Generator: Adobe Illustrator 20.0.0, SVG Export Plug-In . SVG Version: 6.00 Build 0)  -->
<svg version="1.1" id="Camada_1" xmlns="http://www.w3.org/2000/svg" xmlns:xlink="http://www.w3.org/1999/xlink" x="0px" y="0px"
	 viewBox="0 0 320 480" style="enable-background:new 0 0 320 480;" xml:space="preserve">
<style type="text/css">
	.st0{fill:#273138;}
	.st1{fill:#00A675;}
	.st2{fill:#1E262A;}
	.st3{fill:#4B5155;}
	.st4{opacity:0.2;fill:#4B5155;enable-background:new    ;}
	.st5{fill:#FFFFFF;}
</style>
<g>
	<g>
		<g>
			<g>
				<path class="st0" d="M268.2,254.7c-5.2,0-7.9-5.2-8-5.5l3.2-1.6c0,0,1.8,3.5,4.8,3.5c2,0,4.3-0.7,4.7-2.9
					c0.5-2.7-2.7-3.4-4.6-4.1c-2.9-1-6.5-2.3-6.5-6.1c0-3.7,2.8-6.3,6.9-6.3c4.4,0,6.8,3.1,6.9,3.3l-2.9,2.2
					c-0.1-0.1-1.5-1.9-4.1-1.9c-1,0-3.2,0.3-3.2,2.7c0,1.1,1.6,1.8,4.1,2.7c2.9,1.1,6.6,2.4,7,6.1c0.2,2.1-0.3,4-1.6,5.4
					C273.5,253.8,271.1,254.7,268.2,254.7z"/>
			</g>
			<path class="st0" d="M253.7,253.7h3.6l-10.8-22.3l-10.7,22.3h3.6l2-4.1h10.4L253.7,253.7z M242.8,246.4l3.7-7.6l3.7,7.6H242.8z"
				/>
			<polygon class="st0" points="212.8,232.2 197.2,232.2 197.2,235.6 203.1,235.6 203.1,253.7 206.9,253.7 206.9,235.6 212.8,235.6 
							"/>
			<path class="st0" d="M191.6,253.7h3.6l-10.8-22.3l-10.7,22.3h3.6l2-4.1h10.4L191.6,253.7z M180.7,246.4l3.7-7.6l3.7,7.6H180.7z"
				/>
			<polygon class="st0" points="223.2,250.3 223.2,232.3 219.5,232.3 219.5,250.3 219.5,253.7 223.2,253.7 231.9,253.7 231.9,250.3 
							"/>
			<polygon class="st0" points="119.5,232.2 116.3,232.2 116.3,247 100.9,231.2 100.9,253.7 104.1,253.7 104.1,238.6 119.5,254.7 
							"/>
			<path class="st0" d="M128.9,232.2h13.7v3.2h-10.5v5.4h9.8v3.2h-9.8v6.4h10.4v3.2h-13.7V232.2z"/>
			<g>
				<path class="st0" d="M148.6,232.2l4.3,0l4.8,7.5l1.8,2.8l-1.8,2.8l-5.4,8.4H148l7.3-11.2L148.6,232.2z"/>
				<polygon class="st0" points="162.8,242.5 169.6,232.2 165.4,232.2 160.6,239.7 160.5,239.8 162.3,242.5 160.5,245.3 
					160.6,245.3 166,253.7 170.1,253.7 				"/>
			</g>
		</g>
		<path class="st1" d="M87.1,259.7l-7.2-15l2.1-3.4c0.2-0.3,0.2-0.6,0-0.9c-0.2-0.3-0.5-0.5-0.8-0.5l-3.6-0.1l-6.3-13l2.8-3.5
			c0.3-0.3,0.3-0.8,0-1.2l-3.7-4.8c-0.2-0.2-0.4-0.4-0.7-0.4h0c-0.3,0-0.6,0.1-0.7,0.4l-3.8,4.7c-0.3,0.3-0.3,0.8,0,1.2l2.7,3.5
			l-13.6,28.1c-0.2,0-0.5-0.1-0.7-0.1c-2.3,0-4.2,1.9-4.2,4.1c0,2.3,1.9,4.2,4.2,4.2c2.3,0,4.2-1.9,4.2-4.2c0-0.3,0-0.6-0.1-0.8
			l16.8-11.6l1.4,2.5c0.2,0.3,0.4,0.5,0.7,0.5c0,0,0,0,0.1,0c0.3,0,0.6-0.2,0.8-0.5l1-1.7l6.6,13.6L87.1,259.7z M69.6,219.5l2.5,3.3
			l-2.6,3.2l-2.5-3.3L69.6,219.5z M53.4,261.2c-1.3,0-2.3-1-2.3-2.3s1-2.3,2.3-2.3c1.3,0,2.3,1,2.3,2.3
			C55.7,260.1,54.7,261.2,53.4,261.2z M56.4,255.8l13.1-27l5.3,11l-2.5-0.1c-0.3,0-0.6,0.2-0.8,0.5c-0.2,0.3-0.2,0.6,0,0.9l1.8,3.2
			L56.4,255.8z M76.5,246.8l-3-5.4l6.1,0.1L76.5,246.8z"/>
	</g>
	<g>
		<polygon class="st2" points="55.6,251.4 43.4,249.4 43.4,239.5 58.7,240.5 		"/>
		<rect x="43.4" y="236" class="st3" width="23" height="13"/>
		<polygon class="st4" points="64.3,245.3 59.9,249 43.4,249 43.4,244.2 46.1,240 62.4,240 		"/>
		<g>
			<path class="st5" d="M46.1,246v-5.1h1.8c0.6,0,1.1,0.1,1.4,0.4c0.3,0.2,0.5,0.6,0.5,1c0,0.3-0.1,0.5-0.2,0.7
				c-0.1,0.2-0.3,0.3-0.5,0.4c0.3,0.1,0.5,0.2,0.6,0.4c0.2,0.2,0.2,0.4,0.2,0.7c0,0.5-0.2,0.9-0.5,1.1c-0.3,0.3-0.8,0.4-1.3,0.4
				H46.1z M47.1,243h0.8c0.5,0,0.8-0.2,0.8-0.6c0-0.2-0.1-0.4-0.2-0.5c-0.1-0.1-0.3-0.2-0.6-0.2h-0.7C47.1,241.7,47.1,243,47.1,243z
				 M47.1,243.8v1.4H48c0.2,0,0.4-0.1,0.6-0.2c0.1-0.1,0.2-0.3,0.2-0.5c0-0.5-0.2-0.7-0.7-0.7C48.1,243.8,47.1,243.8,47.1,243.8z"/>
			<path class="st5" d="M54.1,243.8h-2v1.4h2.4v0.9H51v-5.1h3.4v0.9h-2.4v1.2h2L54.1,243.8L54.1,243.8z"/>
			<path class="st5" d="M59.4,241.7h-1.6v4.3h-1.1v-4.3h-1.6v-0.9h4.2L59.4,241.7L59.4,241.7z"/>
			<path class="st5" d="M62.8,244.9H61l-0.4,1.1h-1.1l1.9-5.1h1l1.9,5.1h-1.1L62.8,244.9z M61.3,244.1h1.3l-0.6-1.9L61.3,244.1z"/>
		</g>
	</g>
</g>
</svg>
